\relax 
\providecommand\hyper@newdestlabel[2]{}
\citation{Mohler_2009}
\citation{Mohler_2009}
\citation{Mohler_2009}
\@writefile{toc}{\contentsline {section}{\numberline {3.1}Datasets}{27}{section.3.1}}
\newlabel{Section_Datasets}{{3.1}{27}{Datasets}{section.3.1}{}}
\@writefile{toc}{\contentsline {subsection}{\numberline {3.1.1}Mohler Dataset Version 1.0}{27}{subsection.3.1.1}}
\@writefile{lot}{\contentsline {table}{\numberline {3.1}{\ignorespaces Structure of the CSV File for version 1.0 of the Mohler Dataset. Shows the columns: \textbf  {AID} - assignment ID, \textbf  {QID} - question ID, \textbf  {SID} - student ID, \textbf  {Prompt} - question prompt, \textbf  {Model Answer} - the gold standard answer written by the educator, \textbf  {Student Response} - the student's answer to the question and \textbf  {Score} - the averaged score of two human graders.}}{28}{table.3.1}}
\newlabel{MatMeth_v1csvTable}{{3.1}{28}{Structure of the CSV File for version 1.0 of the Mohler Dataset. Shows the columns: \textbf {AID} - assignment ID, \textbf {QID} - question ID, \textbf {SID} - student ID, \textbf {Prompt} - question prompt, \textbf {Model Answer} - the gold standard answer written by the educator, \textbf {Student Response} - the student's answer to the question and \textbf {Score} - the averaged score of two human graders}{table.3.1}{}}
\@writefile{lof}{\contentsline {figure}{\numberline {3.1}{\ignorespaces The histogram and ECDF distribution of averaged student scores across v1.0 of the dataset.}}{28}{figure.3.1}}
\newlabel{MatMeth_fig_v1_hist_ecdf}{{3.1}{28}{The histogram and ECDF distribution of averaged student scores across v1.0 of the dataset}{figure.3.1}{}}
\citation{mohler_bunescu_mihalcea_2011}
\citation{mohler_bunescu_mihalcea_2011}
\@writefile{lof}{\contentsline {figure}{\numberline {3.2}{\ignorespaces The histogram distribution of the fail (0) and pass (1) scores across v1.0 of the dataset.}}{29}{figure.3.2}}
\newlabel{MatMeth_v1_binary_class}{{3.2}{29}{The histogram distribution of the fail (0) and pass (1) scores across v1.0 of the dataset}{figure.3.2}{}}
\@writefile{toc}{\contentsline {subsection}{\numberline {3.1.2}Mohler Dataset Version 2.0}{29}{subsection.3.1.2}}
\newlabel{Subsection_Datasets_v2}{{3.1.2}{29}{Mohler Dataset Version 2.0}{subsection.3.1.2}{}}
\citation{kohn_1999}
\@writefile{lof}{\contentsline {figure}{\numberline {3.3}{\ignorespaces The distribution of averaged student scores across v2.0 of the Mohler dataset shown by the Histogram and ECDF respectively.}}{30}{figure.3.3}}
\newlabel{MatMeth_v2_hist_and_ecdf}{{3.3}{30}{The distribution of averaged student scores across v2.0 of the Mohler dataset shown by the Histogram and ECDF respectively}{figure.3.3}{}}
\@writefile{toc}{\contentsline {subsection}{\numberline {3.1.3}Annotation and Extension of Mohler Dataset Version 2.0}{30}{subsection.3.1.3}}
\newlabel{Subsection_Dataset_Annotation}{{3.1.3}{30}{Annotation and Extension of Mohler Dataset Version 2.0}{subsection.3.1.3}{}}
\@writefile{toc}{\contentsline {subsubsection}{Discoveries made by Hand-Grading the Dataset from Scratch}{30}{section*.24}}
\@writefile{toc}{\contentsline {paragraph}{Grader Behavior and Student Response Classes}{30}{section*.25}}
\@writefile{lot}{\contentsline {table}{\numberline {3.2}{\ignorespaces Custom labels applied to student responses in order to differentiate them into classes and aid in consistent scoring.}}{31}{table.3.2}}
\newlabel{MatMeth_gradingClasses}{{3.2}{31}{Custom labels applied to student responses in order to differentiate them into classes and aid in consistent scoring}{table.3.2}{}}
\@writefile{lof}{\contentsline {figure}{\numberline {3.4}{\ignorespaces The green dots are the mean, the red lines the median. Notice how the author's scores seperate and differentiate the classes and remove much of the overlapping inconsistency. Almost all scores classified as wrong (WU or WR) have a score $\leq 2.5$. This is where the failure threshold is derived for false answers in binary classification on the dataset. Also an upper threshold of $4$ looks like a good choice as a low cut-off for \textit  {correct} scores.}}{32}{figure.3.4}}
\newlabel{MatMeth_scoreDist_with_5labels}{{3.4}{32}{The green dots are the mean, the red lines the median. Notice how the author's scores seperate and differentiate the classes and remove much of the overlapping inconsistency. Almost all scores classified as wrong (WU or WR) have a score $\leq 2.5$. This is where the failure threshold is derived for false answers in binary classification on the dataset. Also an upper threshold of $4$ looks like a good choice as a low cut-off for \textit {correct} scores}{figure.3.4}{}}
\@writefile{lof}{\contentsline {figure}{\numberline {3.5}{\ignorespaces Distribution of student grades when grouping the data into a three class and binary classification problem based on the thresholds of $x < 2.5$ for \textit  {wrong} responses and $x \geq 4$ for \textit  {correct} responses.}}{32}{figure.3.5}}
\newlabel{MatMeth_mergedLabels}{{3.5}{32}{Distribution of student grades when grouping the data into a three class and binary classification problem based on the thresholds of $x < 2.5$ for \textit {wrong} responses and $x \geq 4$ for \textit {correct} responses}{figure.3.5}{}}
\@writefile{toc}{\contentsline {paragraph}{The Grading Process and Score Distribution}{33}{section*.26}}
\@writefile{toc}{\contentsline {subsubsection}{Student Response Structures}{33}{section*.27}}
\newlabel{Subsubsection_Extra_Annotations}{{3.1.3}{33}{Student Response Structures}{section*.27}{}}
\@writefile{lot}{\contentsline {table}{\numberline {3.3}{\ignorespaces Annotated labels used to understand structural patterns in student responses and grading behavior.}}{34}{table.3.3}}
\newlabel{MatMeth_gradeReasonLabels}{{3.3}{34}{Annotated labels used to understand structural patterns in student responses and grading behavior}{table.3.3}{}}
\@writefile{toc}{\contentsline {subsubsection}{Dataset Pruning}{35}{section*.28}}
\@writefile{toc}{\contentsline {subsection}{\numberline {3.1.4}Translated Datasets}{35}{subsection.3.1.4}}
\@writefile{lof}{\contentsline {figure}{\numberline {3.6}{\ignorespaces  \textbf  {(A)} The textual contents of the very short model answers. \textbf  {(B)} The location of the very short model answers in the scatter plot of median answer lengths; these answers are good candidates for a fill-in-the-blank question type.}}{36}{figure.3.6}}
\newlabel{MatMeth_lengthComparisons}{{3.6}{36}{\textbf {(A)} The textual contents of the very short model answers. \textbf {(B)} The location of the very short model answers in the scatter plot of median answer lengths; these answers are good candidates for a fill-in-the-blank question type}{figure.3.6}{}}
\@writefile{lot}{\contentsline {table}{\numberline {3.4}{\ignorespaces Example showing an excerpt from the CSV file translated into German for version 2.0 of the Mohler Dataset.}}{36}{table.3.4}}
\newlabel{MatMeth_translated_Dataset_ToGerman}{{3.4}{36}{Example showing an excerpt from the CSV file translated into German for version 2.0 of the Mohler Dataset}{table.3.4}{}}
\citation{dzikovska_2013}
\citation{hp_foundation_sas}
\citation{hp_foundation_sas}
\@writefile{toc}{\contentsline {subsection}{\numberline {3.1.5}Other Datasets Considered}{37}{subsection.3.1.5}}
\@setckpt{chapters/material_and_method/01_datasets}{
\setcounter{page}{38}
\setcounter{equation}{0}
\setcounter{enumi}{5}
\setcounter{enumii}{0}
\setcounter{enumiii}{0}
\setcounter{enumiv}{0}
\setcounter{footnote}{1}
\setcounter{mpfootnote}{0}
\setcounter{part}{0}
\setcounter{section}{1}
\setcounter{subsection}{5}
\setcounter{subsubsection}{0}
\setcounter{paragraph}{0}
\setcounter{subparagraph}{0}
\setcounter{figure}{6}
\setcounter{table}{4}
\setcounter{chapter}{3}
\setcounter{theorem}{0}
\setcounter{prob}{0}
\setcounter{merk}{0}
\setcounter{Item}{51}
\setcounter{Hfootnote}{2}
\setcounter{bookmark@seq@number}{24}
\setcounter{lstnumber}{1}
\setcounter{parentequation}{0}
\setcounter{AlgoLine}{0}
\setcounter{algocfline}{0}
\setcounter{algocfproc}{0}
\setcounter{algocf}{0}
\setcounter{float@type}{8}
\setcounter{section@level}{2}
\setcounter{lstlisting}{0}
}
