\relax 
\providecommand\hyper@newdestlabel[2]{}
\@writefile{toc}{\contentsline {section}{\numberline {3.2}Framing Performance}{38}{section.3.2}}
\newlabel{Upper_and_Lower_Bounds}{{3.2}{38}{Framing Performance}{section.3.2}{}}
\@writefile{toc}{\contentsline {subsection}{\numberline {3.2.1}Lower Bounds}{38}{subsection.3.2.1}}
\@writefile{lof}{\contentsline {figure}{\numberline {3.7}{\ignorespaces A monkey randomly picking grades and assigning them to student responses would have accuracy measurements of around $17\%$ for continuous grading and $50\%$ for pass/fail grading on the dataset.}}{38}{figure.3.7}}
\newlabel{MatMeth_lowerBoundsAccuracy}{{3.7}{38}{A monkey randomly picking grades and assigning them to student responses would have accuracy measurements of around $17\%$ for continuous grading and $50\%$ for pass/fail grading on the dataset}{figure.3.7}{}}
\@writefile{toc}{\contentsline {subsection}{\numberline {3.2.2}Upper Bounds}{38}{subsection.3.2.2}}
\@writefile{lot}{\contentsline {table}{\numberline {3.5}{\ignorespaces Comparing the author's scores vs. the other human graders' scores on the dataset. Shows key measurements on grading for 6-Classes, 3-Classes (\textit  {Wrong}, \textit  {Partially\_Correct}, \textit  {Correct}) and 2-Classes (\textit  {Pass},\textit  {Fail}).}}{39}{table.3.5}}
\newlabel{MatMeth_upperBounds}{{3.5}{39}{Comparing the author's scores vs. the other human graders' scores on the dataset. Shows key measurements on grading for 6-Classes, 3-Classes (\textit {Wrong}, \textit {Partially\_Correct}, \textit {Correct}) and 2-Classes (\textit {Pass},\textit {Fail})}{table.3.5}{}}
\@setckpt{chapters/material_and_method/02_bounds}{
\setcounter{page}{40}
\setcounter{equation}{0}
\setcounter{enumi}{5}
\setcounter{enumii}{0}
\setcounter{enumiii}{0}
\setcounter{enumiv}{0}
\setcounter{footnote}{1}
\setcounter{mpfootnote}{0}
\setcounter{part}{0}
\setcounter{section}{2}
\setcounter{subsection}{2}
\setcounter{subsubsection}{0}
\setcounter{paragraph}{0}
\setcounter{subparagraph}{0}
\setcounter{figure}{7}
\setcounter{table}{5}
\setcounter{chapter}{3}
\setcounter{theorem}{0}
\setcounter{prob}{0}
\setcounter{merk}{0}
\setcounter{Item}{51}
\setcounter{Hfootnote}{2}
\setcounter{bookmark@seq@number}{27}
\setcounter{lstnumber}{1}
\setcounter{parentequation}{0}
\setcounter{AlgoLine}{0}
\setcounter{algocfline}{0}
\setcounter{algocfproc}{0}
\setcounter{algocf}{0}
\setcounter{float@type}{8}
\setcounter{section@level}{2}
\setcounter{lstlisting}{0}
}
