\relax 
\providecommand\hyper@newdestlabel[2]{}
\citation{manning_schutze_2008}
\citation{manning_schutze_2008}
\citation{manning_schutze_2008}
\@writefile{toc}{\contentsline {section}{\numberline {3.3}Methods}{40}{section.3.3}}
\newlabel{MatMeth_Methods_Section}{{3.3}{40}{Methods}{section.3.3}{}}
\@writefile{toc}{\contentsline {subsection}{\numberline {3.3.1}General Preprocessing}{40}{subsection.3.3.1}}
\@writefile{toc}{\contentsline {subsubsection}{Stopword Removal}{40}{section*.29}}
\newlabel{MatMeth_stopword_removal_code_example}{{3.1}{40}{Stopword removal example in Python using NLTK. Notice how the function words \textit {A}, \textit {is}, \textit {in}, \textit {to}, \textit {for} and \textit {the} are removed from the final result}{lstlisting.3.1}{}}
\@writefile{lol}{\contentsline {lstlisting}{\numberline {3.1}Stopword removal example in Python using NLTK. Notice how the function words \textit  {A}, \textit  {is}, \textit  {in}, \textit  {to}, \textit  {for} and \textit  {the} are removed from the final result.}{40}{lstlisting.3.1}}
\@writefile{toc}{\contentsline {subsubsection}{Case and Whitespace Normalization}{40}{section*.30}}
\citation{manning_schutze_2008}
\citation{manning_schutze_2008}
\citation{manning_schutze_2008}
\newlabel{MatMeth_case_normalization_code_example}{{3.2}{41}{Case and whitespace normalization example}{lstlisting.3.2}{}}
\@writefile{lol}{\contentsline {lstlisting}{\numberline {3.2}Case and whitespace normalization example.}{41}{lstlisting.3.2}}
\@writefile{toc}{\contentsline {subsubsection}{Stemming}{41}{section*.31}}
\newlabel{MatMeth_stemming_code_example}{{3.3}{41}{Stemming example}{lstlisting.3.3}{}}
\@writefile{lol}{\contentsline {lstlisting}{\numberline {3.3}Stemming example.}{41}{lstlisting.3.3}}
\@writefile{toc}{\contentsline {subsubsection}{Lemmatization}{41}{section*.32}}
\citation{friedl_2008}
\newlabel{MatMeth_lemmatization_code_example}{{3.4}{42}{Lemmatization example}{lstlisting.3.4}{}}
\@writefile{lol}{\contentsline {lstlisting}{\numberline {3.4}Lemmatization example.}{42}{lstlisting.3.4}}
\@writefile{toc}{\contentsline {subsubsection}{Punctuation Removal}{42}{section*.33}}
\@writefile{toc}{\contentsline {subsubsection}{Unexplored Preprocessing Techniques}{42}{section*.34}}
\@writefile{toc}{\contentsline {subsection}{\numberline {3.3.2}Regular Expressions}{42}{subsection.3.3.2}}
\newlabel{MatMeth_regexCodeListing}{{3.5}{43}{Applied example of regular expressions in Python code}{lstlisting.3.5}{}}
\@writefile{lol}{\contentsline {lstlisting}{\numberline {3.5}Applied example of regular expressions in Python code.}{43}{lstlisting.3.5}}
\@writefile{toc}{\contentsline {subsection}{\numberline {3.3.3}Lexical Structure}{43}{subsection.3.3.3}}
\citation{Pribadi_2017}
\@writefile{toc}{\contentsline {subsubsection}{Word Overlap Equations}{44}{section*.35}}
\@writefile{toc}{\contentsline {paragraph}{Dice Coefficient}{44}{section*.36}}
\@writefile{toc}{\contentsline {paragraph}{Jaccard Coefficient}{44}{section*.37}}
\@writefile{toc}{\contentsline {paragraph}{Cosine Coefficient}{44}{section*.38}}
\citation{manning_schutze_2008}
\@writefile{toc}{\contentsline {paragraph}{Faucett Coefficient}{45}{section*.39}}
\@writefile{toc}{\contentsline {subsubsection}{Bag-of-Words (BoW) and N-Grams}{45}{section*.40}}
\@writefile{toc}{\contentsline {subsection}{\numberline {3.3.4}Syntactical Structure}{45}{subsection.3.3.4}}
\citation{SLPv3}
\@writefile{lof}{\contentsline {figure}{\numberline {3.8}{\ignorespaces Note how the tokens \textbf  {(N1)} have a matching score of $0.8$, the bigrams \textbf  {(N2)} a score of $0.5$, the trigrams \textbf  {(N3)} a score of $0.33$, and there are no 4-gram matches \textbf  {(N4)}. This shows why \textit  {n}-gram matches of greater $n$ should have some form of score boosting; it is simply the case that they are much less likely to occur and hence carry more information content.}}{46}{figure.3.8}}
\newlabel{MatMeth_howNGramsWork}{{3.8}{46}{Note how the tokens \textbf {(N1)} have a matching score of $0.8$, the bigrams \textbf {(N2)} a score of $0.5$, the trigrams \textbf {(N3)} a score of $0.33$, and there are no 4-gram matches \textbf {(N4)}. This shows why \textit {n}-gram matches of greater $n$ should have some form of score boosting; it is simply the case that they are much less likely to occur and hence carry more information content}{figure.3.8}{}}
\@writefile{toc}{\contentsline {subsubsection}{Edit Distance}{46}{section*.41}}
\citation{bleu_score_2001}
\citation{bleu_score_2001}
\@writefile{lof}{\contentsline {figure}{\numberline {3.9}{\ignorespaces Representing the minimum edit distance between two sentences as alignment. The final row gives the operations for each action needed to align the two sentences. \textbf  {d} = delete, \textbf  {s} = substitute. Not shown in this example is the insert operation.}}{47}{figure.3.9}}
\newlabel{MatMeth_editDistanceExample}{{3.9}{47}{Representing the minimum edit distance between two sentences as alignment. The final row gives the operations for each action needed to align the two sentences. \textbf {d} = delete, \textbf {s} = substitute. Not shown in this example is the insert operation}{figure.3.9}{}}
\newlabel{MatMeth_edit_similarityEquation}{{3.1}{47}{Edit Distance}{equation.3.3.1}{}}
\@writefile{toc}{\contentsline {subsubsection}{Bleu Score}{47}{section*.42}}
\citation{tree_edit_distance_2015}
\citation{tree_edit_distance_2015}
\citation{manning_schutze_2008}
\citation{manning_schutze_2008}
\citation{germanet_2018}
\newlabel{MatMeth_bleuScore_example}{{3.6}{48}{Bleu score example in Python using NLTK}{lstlisting.3.6}{}}
\@writefile{lol}{\contentsline {lstlisting}{\numberline {3.6}Bleu score example in Python using NLTK}{48}{lstlisting.3.6}}
\@writefile{toc}{\contentsline {subsubsection}{Tree Edit Distance}{48}{section*.43}}
\newlabel{MatMeth_treeEditDistance_Equation}{{3.2}{48}{Tree Edit Distance}{equation.3.3.2}{}}
\@writefile{toc}{\contentsline {subsection}{\numberline {3.3.5}Semantics}{48}{subsection.3.3.5}}
\newlabel{MatMeth_Subsection_Semantics}{{3.3.5}{48}{Semantics}{subsection.3.3.5}{}}
\@writefile{toc}{\contentsline {subsubsection}{Knowledge and Corpus Based Word Meaning}{48}{section*.44}}
\@writefile{lof}{\contentsline {figure}{\numberline {3.10}{\ignorespaces \textbf  {(A)} the model answer is transformed into \textbf  {(B)} the student response. Each tree edit carries an associated cost with it, and thus the distance between two sentences can be quantified as the size of this cost. Notice how two identical sentences will have a cost of $0$ and sentences which are structurally very different will have higher costs.}}{49}{figure.3.10}}
\newlabel{MatMeth_treeEditDistance}{{3.10}{49}{\textbf {(A)} the model answer is transformed into \textbf {(B)} the student response. Each tree edit carries an associated cost with it, and thus the distance between two sentences can be quantified as the size of this cost. Notice how two identical sentences will have a cost of $0$ and sentences which are structurally very different will have higher costs}{figure.3.10}{}}
\citation{leacock_and_chodorow_similarity_1998}
\citation{wu_palmer_similarity_1994}
\citation{wu_palmer_similarity_1994}
\citation{jiang_conrath_similarity_1997}
\@writefile{toc}{\contentsline {subsubsection}{Shortest Path Similarity}{50}{section*.45}}
\newlabel{sem_shortestPathAlg}{{3.3}{50}{Shortest Path Similarity}{equation.3.3.3}{}}
\@writefile{toc}{\contentsline {subsubsection}{Leacock and Chodorow Similarity}{50}{section*.46}}
\newlabel{sem_leacockAndChodorow_alg}{{3.4}{50}{Leacock and Chodorow Similarity}{equation.3.3.4}{}}
\@writefile{toc}{\contentsline {subsubsection}{Wu and Palmer Similarity}{50}{section*.47}}
\newlabel{sem_wuAndPalmer_alg}{{3.5}{50}{Wu and Palmer Similarity}{equation.3.3.5}{}}
\citation{information_content_measures_2010}
\citation{information_content_measures_2010}
\@writefile{lof}{\contentsline {figure}{\numberline {3.11}{\ignorespaces Demonstration of the Wu and Palmer similarity for the two concepts \textit  {Car} and \textit  {Boat}. The concept \textit  {Vehicle} is the Least Common Subsumer \textbf  {(LCS)} of both \textit  {Car} and \textit  {Boat}. The depths within the graph hierarchy are given on the side, where \textit  {Car} has a depth of $3$, \textit  {Vehicle} $1$, and \textit  {Boat} $2$. The similarity is thus: $\frac  {2\cdot depth(LCS)}{depth(Boat) + depth(Car)} = \frac  {2\cdot 1}{2 + 3} = 0.4$.}}{51}{figure.3.11}}
\newlabel{sem_wuAndPalmer_example}{{3.11}{51}{Demonstration of the Wu and Palmer similarity for the two concepts \textit {Car} and \textit {Boat}. The concept \textit {Vehicle} is the Least Common Subsumer \textbf {(LCS)} of both \textit {Car} and \textit {Boat}. The depths within the graph hierarchy are given on the side, where \textit {Car} has a depth of $3$, \textit {Vehicle} $1$, and \textit {Boat} $2$. The similarity is thus: $\frac {2\cdot depth(LCS)}{depth(Boat) + depth(Car)} = \frac {2\cdot 1}{2 + 3} = 0.4$}{figure.3.11}{}}
\@writefile{toc}{\contentsline {subsubsection}{WordNet and Information Content Similarity Measures}{51}{section*.48}}
\citation{deep_learning_for_nlp_2018}
\citation{deep_learning_for_nlp_2018}
\citation{word2vec_2013}
\newlabel{sem_jianAndConrath_alg}{{3.9}{52}{WordNet and Information Content Similarity Measures}{equation.3.3.9}{}}
\@writefile{toc}{\contentsline {subsubsection}{Word Embeddings}{52}{section*.49}}
\@writefile{lof}{\contentsline {figure}{\numberline {3.12}{\ignorespaces A visual representation of word embeddings in 3D space. Notice how man and woman share similar positions as well as king and queen. This is the idea behind word embeddings: capturing distributional semantics within a vector representation. \newline  Source: https://www.tensorflow.org/tutorials/representation/word2vec}}{52}{figure.3.12}}
\newlabel{MatMeth_sem_wordEmbeddings_ex1}{{3.12}{52}{A visual representation of word embeddings in 3D space. Notice how man and woman share similar positions as well as king and queen. This is the idea behind word embeddings: capturing distributional semantics within a vector representation. \newline Source: https://www.tensorflow.org/tutorials/representation/word2vec}{figure.3.12}{}}
\citation{fastText_2016}
\citation{wmd_2015}
\citation{wmd_2015}
\citation{wmd_2015}
\citation{Mohler_2009}
\@writefile{toc}{\contentsline {paragraph}{Word Mover's Distance (WMD)}{53}{section*.50}}
\newlabel{wordMoversSimilarity}{{3.10}{53}{Word Mover's Distance (WMD)}{equation.3.3.10}{}}
\@writefile{toc}{\contentsline {subsection}{\numberline {3.3.6}Scoring Equation}{53}{subsection.3.3.6}}
\@writefile{lof}{\contentsline {figure}{\numberline {3.13}{\ignorespaces Notice how the word embeddings from \textit  {docuemnt 1}: \textit  {Obama}, \textit  {speaks}, \textit  {media} and \textit  {Illinois} have to travel i.e. move to transform into the positions of semantically similar words in \textit  {document 2}. Quantifying the distances covered by this movement is the idea behind WMD \cite  {wmd_2015}.}}{54}{figure.3.13}}
\newlabel{MatMeth_sem_wmdExample}{{3.13}{54}{Notice how the word embeddings from \textit {docuemnt 1}: \textit {Obama}, \textit {speaks}, \textit {media} and \textit {Illinois} have to travel i.e. move to transform into the positions of semantically similar words in \textit {document 2}. Quantifying the distances covered by this movement is the idea behind WMD \cite {wmd_2015}}{figure.3.13}{}}
\newlabel{scoring_maxsimEquation_definition}{{3.11}{54}{Scoring Equation}{equation.3.3.11}{}}
\newlabel{scoring_scoringEq_def1}{{3.12}{54}{Scoring Equation}{equation.3.3.12}{}}
\newlabel{scoring_scoringEq_def2}{{3.13}{54}{Scoring Equation}{equation.3.3.13}{}}
\newlabel{scoring_scoringEq_def3}{{3.14}{54}{Scoring Equation}{equation.3.3.14}{}}
\newlabel{scoring_ScalingEq}{{3.15}{54}{Scoring Equation}{equation.3.3.15}{}}
\citation{scikit_learn}
\citation{scikit_learn}
\@writefile{toc}{\contentsline {subsection}{\numberline {3.3.7}Machine Learning}{55}{subsection.3.3.7}}
\@writefile{toc}{\contentsline {subsubsection}{Multi-layer Perceptron}{55}{section*.51}}
\@writefile{lof}{\contentsline {figure}{\numberline {3.14}{\ignorespaces A Multi-layer Perceptron $f(X)$ applied to the features $X$ with one hidden layer. The weights ($a_{1},...a_{k}$) are adjusted by the algorithm in order to predict the target class. \newline  Source: \url  {https://scikit-learn.org/stable/modules/neural_networks_supervised.html}}}{55}{figure.3.14}}
\newlabel{MatMeth_multilayerPerceptron}{{3.14}{55}{A Multi-layer Perceptron $f(X)$ applied to the features $X$ with one hidden layer. The weights ($a_{1},...a_{k}$) are adjusted by the algorithm in order to predict the target class. \newline Source: \url {https://scikit-learn.org/stable/modules/neural_networks_supervised.html}}{figure.3.14}{}}
\citation{scikit_learn}
\@writefile{toc}{\contentsline {subsubsection}{Logistic Regression}{56}{section*.52}}
\@writefile{toc}{\contentsline {subsubsection}{Random Forest}{56}{section*.53}}
\@setckpt{chapters/material_and_method/03_methods}{
\setcounter{page}{57}
\setcounter{equation}{15}
\setcounter{enumi}{5}
\setcounter{enumii}{0}
\setcounter{enumiii}{0}
\setcounter{enumiv}{0}
\setcounter{footnote}{2}
\setcounter{mpfootnote}{0}
\setcounter{part}{0}
\setcounter{section}{3}
\setcounter{subsection}{7}
\setcounter{subsubsection}{0}
\setcounter{paragraph}{0}
\setcounter{subparagraph}{0}
\setcounter{figure}{14}
\setcounter{table}{5}
\setcounter{chapter}{3}
\setcounter{theorem}{0}
\setcounter{prob}{0}
\setcounter{merk}{0}
\setcounter{Item}{51}
\setcounter{Hfootnote}{3}
\setcounter{bookmark@seq@number}{35}
\setcounter{lstnumber}{13}
\setcounter{parentequation}{0}
\setcounter{AlgoLine}{0}
\setcounter{algocfline}{0}
\setcounter{algocfproc}{0}
\setcounter{algocf}{0}
\setcounter{float@type}{8}
\setcounter{section@level}{3}
\setcounter{lstlisting}{6}
}
