\relax 
\providecommand\hyper@newdestlabel[2]{}
\@writefile{toc}{\contentsline {section}{\numberline {3.4}Statistical Evaluation Measures}{57}{section.3.4}}
\@writefile{toc}{\contentsline {subsection}{\numberline {3.4.1}Predictions: Accuracy, Precision, Recall and F1}{57}{subsection.3.4.1}}
\@writefile{lof}{\contentsline {figure}{\numberline {3.15}{\ignorespaces A confusion matrix demonstrating a model's predicted values (Predicted Class) vs. the true values (Actual Class).}}{57}{figure.3.15}}
\newlabel{stats_accuracy_scores}{{3.15}{57}{A confusion matrix demonstrating a model's predicted values (Predicted Class) vs. the true values (Actual Class)}{figure.3.15}{}}
\@writefile{toc}{\contentsline {paragraph}{Accuracy}{57}{section*.54}}
\newlabel{stats_accuracyScore}{{3.16}{58}{Accuracy}{equation.3.4.16}{}}
\@writefile{toc}{\contentsline {paragraph}{Precision}{58}{section*.55}}
\newlabel{stats_precisionScore}{{3.17}{58}{Precision}{equation.3.4.17}{}}
\@writefile{toc}{\contentsline {paragraph}{Recall}{58}{section*.56}}
\newlabel{stats_recallScore}{{3.18}{58}{Recall}{equation.3.4.18}{}}
\@writefile{toc}{\contentsline {paragraph}{F1 Score}{59}{section*.57}}
\newlabel{stats_f1Score}{{3.19}{59}{F1 Score}{equation.3.4.19}{}}
\@writefile{toc}{\contentsline {subsection}{\numberline {3.4.2}Predicted Error Differences: Mean Absolute Error (MAE)}{59}{subsection.3.4.2}}
\newlabel{MatMeth_meanAbsoluteError}{{3.20}{59}{Predicted Error Differences: Mean Absolute Error (MAE)}{equation.3.4.20}{}}
\@writefile{toc}{\contentsline {subsection}{\numberline {3.4.3}Prediction Agreement: Cohen's Kappa and Pearson's R}{59}{subsection.3.4.3}}
\citation{kohn_1999}
\citation{cohen_1960}
\citation{cohen_1960}
\citation{leacock_2004}
\citation{fleiss_2003}
\@writefile{toc}{\contentsline {paragraph}{Pearson Correlation Coefficient (PCC or Pearson's R)}{60}{section*.58}}
\newlabel{stats_pearsonsR}{{3.21}{60}{Pearson Correlation Coefficient (PCC or Pearson's R)}{equation.3.4.21}{}}
\@writefile{toc}{\contentsline {paragraph}{Cohen's Kappa}{60}{section*.59}}
\newlabel{stats_cohensKappa}{{3.22}{60}{Cohen's Kappa}{equation.3.4.22}{}}
\@setckpt{chapters/material_and_method/04_stats_measures}{
\setcounter{page}{61}
\setcounter{equation}{22}
\setcounter{enumi}{5}
\setcounter{enumii}{0}
\setcounter{enumiii}{0}
\setcounter{enumiv}{0}
\setcounter{footnote}{2}
\setcounter{mpfootnote}{0}
\setcounter{part}{0}
\setcounter{section}{4}
\setcounter{subsection}{3}
\setcounter{subsubsection}{0}
\setcounter{paragraph}{0}
\setcounter{subparagraph}{0}
\setcounter{figure}{15}
\setcounter{table}{5}
\setcounter{chapter}{3}
\setcounter{theorem}{0}
\setcounter{prob}{0}
\setcounter{merk}{0}
\setcounter{Item}{51}
\setcounter{Hfootnote}{3}
\setcounter{bookmark@seq@number}{39}
\setcounter{lstnumber}{13}
\setcounter{parentequation}{0}
\setcounter{AlgoLine}{0}
\setcounter{algocfline}{0}
\setcounter{algocfproc}{0}
\setcounter{algocf}{0}
\setcounter{float@type}{8}
\setcounter{section@level}{4}
\setcounter{lstlisting}{6}
}
