\relax 
\providecommand\hyper@newdestlabel[2]{}
\@writefile{toc}{\contentsline {section}{\numberline {3.5}Technical Evaluation Sections (TES) for Evaluating Experiment Results}{61}{section.3.5}}
\@writefile{toc}{\contentsline {subsection}{\numberline {3.5.1}TES.I: Effectiveness at Automatic Grade Assignment}{61}{subsection.3.5.1}}
\@writefile{toc}{\contentsline {subsection}{\numberline {3.5.2}TES.II: Time and Space Complexity}{61}{subsection.3.5.2}}
\@writefile{toc}{\contentsline {subsection}{\numberline {3.5.3}TES.III: Amount of Teacher Expertise and Effort Required}{61}{subsection.3.5.3}}
\@writefile{toc}{\contentsline {subsection}{\numberline {3.5.4}TES.IV: Fulfillment of Desired Characteristics for Stembord}{61}{subsection.3.5.4}}
\@writefile{toc}{\contentsline {subsubsection}{Summary}{61}{section*.60}}
\@setckpt{chapters/material_and_method/05_tech_measures}{
\setcounter{page}{62}
\setcounter{equation}{22}
\setcounter{enumi}{5}
\setcounter{enumii}{0}
\setcounter{enumiii}{0}
\setcounter{enumiv}{0}
\setcounter{footnote}{2}
\setcounter{mpfootnote}{0}
\setcounter{part}{0}
\setcounter{section}{5}
\setcounter{subsection}{4}
\setcounter{subsubsection}{0}
\setcounter{paragraph}{0}
\setcounter{subparagraph}{0}
\setcounter{figure}{15}
\setcounter{table}{5}
\setcounter{chapter}{3}
\setcounter{theorem}{0}
\setcounter{prob}{0}
\setcounter{merk}{0}
\setcounter{Item}{51}
\setcounter{Hfootnote}{3}
\setcounter{bookmark@seq@number}{44}
\setcounter{lstnumber}{13}
\setcounter{parentequation}{0}
\setcounter{AlgoLine}{0}
\setcounter{algocfline}{0}
\setcounter{algocfproc}{0}
\setcounter{algocf}{0}
\setcounter{float@type}{8}
\setcounter{section@level}{3}
\setcounter{lstlisting}{6}
}
