\relax 
\providecommand\hyper@newdestlabel[2]{}
\providecommand\HyperFirstAtBeginDocument{\AtBeginDocument}
\HyperFirstAtBeginDocument{\ifx\hyper@anchor\@undefined
\global\let\oldcontentsline\contentsline
\gdef\contentsline#1#2#3#4{\oldcontentsline{#1}{#2}{#3}}
\global\let\oldnewlabel\newlabel
\gdef\newlabel#1#2{\newlabelxx{#1}#2}
\gdef\newlabelxx#1#2#3#4#5#6{\oldnewlabel{#1}{{#2}{#3}}}
\AtEndDocument{\ifx\hyper@anchor\@undefined
\let\contentsline\oldcontentsline
\let\newlabel\oldnewlabel
\fi}
\fi}
\global\let\hyper@last\relax 
\gdef\HyperFirstAtBeginDocument#1{#1}
\providecommand\HyField@AuxAddToFields[1]{}
\providecommand\HyField@AuxAddToCoFields[2]{}
\providecommand \oddpage@label [2]{}
\babel@aux{english}{}
\@writefile{toc}{\contentsline {chapter}{\numberline {1}Introduction}{1}{chapter.1}}
\@writefile{lof}{\addvspace {10\p@ }}
\@writefile{lot}{\addvspace {10\p@ }}
\@writefile{loa}{\addvspace {10\p@ }}
\@input{chapters/intro/01_asag.aux}
\@input{chapters/intro/02_stembord.aux}
\@writefile{toc}{\contentsline {chapter}{\numberline {2}Motivation and Problem Definition}{21}{chapter.2}}
\@writefile{lof}{\addvspace {10\p@ }}
\@writefile{lot}{\addvspace {10\p@ }}
\@writefile{loa}{\addvspace {10\p@ }}
\newlabel{Motivation_and_Problem_Definition_Chapter}{{2}{21}{Motivation and Problem Definition}{chapter.2}{}}
\@writefile{toc}{\contentsline {section}{\numberline {2.1}Problem Definition}{21}{section.2.1}}
\@writefile{lof}{\contentsline {figure}{\numberline {2.1}{\ignorespaces Core Components of ASAG}}{21}{figure.2.1}}
\newlabel{prob_def_threeComponentsOfASAG}{{2.1}{21}{Core Components of ASAG}{figure.2.1}{}}
\@writefile{lof}{\contentsline {figure}{\numberline {2.2}{\ignorespaces ASAG function assigned scores}}{22}{figure.2.2}}
\newlabel{prob_def_asagScoreAssignment}{{2.2}{22}{ASAG function assigned scores}{figure.2.2}{}}
\citation{burrows_gurevych_stein_2014}
\@writefile{toc}{\contentsline {section}{\numberline {2.2}Motivation}{23}{section.2.2}}
\@writefile{toc}{\contentsline {subsection}{\numberline {2.2.1}Motivation from ASAG}{23}{subsection.2.2.1}}
\@writefile{toc}{\contentsline {subsection}{\numberline {2.2.2}Motivation from Stembord}{24}{subsection.2.2.2}}
\@writefile{toc}{\contentsline {subsection}{\numberline {2.2.3}Definition Specific Motivations}{25}{subsection.2.2.3}}
\@writefile{toc}{\contentsline {chapter}{\numberline {3}Material and Method}{26}{chapter.3}}
\@writefile{lof}{\addvspace {10\p@ }}
\@writefile{lot}{\addvspace {10\p@ }}
\@writefile{loa}{\addvspace {10\p@ }}
\newlabel{Material_and_Method}{{3}{26}{Material and Method}{chapter.3}{}}
\@input{chapters/material_and_method/01_datasets.aux}
\@input{chapters/material_and_method/02_bounds.aux}
\@input{chapters/material_and_method/03_methods.aux}
\@input{chapters/material_and_method/04_stats_measures.aux}
\@input{chapters/material_and_method/05_tech_measures.aux}
\@writefile{toc}{\contentsline {chapter}{\numberline {4}Experiments}{62}{chapter.4}}
\@writefile{lof}{\addvspace {10\p@ }}
\@writefile{lot}{\addvspace {10\p@ }}
\@writefile{loa}{\addvspace {10\p@ }}
\@input{chapters/experiments/01_regular_expressions.aux}
\@input{chapters/experiments/02_lexical_features.aux}
\@input{chapters/experiments/03_syntax.aux}
\@input{chapters/experiments/04_semantics.aux}
\@input{chapters/experiments/05_machine_learning.aux}
\@input{chapters/experiments/06_conclusion.aux}
\@writefile{toc}{\contentsline {chapter}{\numberline {5}Software Module Implementation}{108}{chapter.5}}
\@writefile{lof}{\addvspace {10\p@ }}
\@writefile{lot}{\addvspace {10\p@ }}
\@writefile{loa}{\addvspace {10\p@ }}
\@input{chapters/module_implementation/01_stembord_components.aux}
\@input{chapters/module_implementation/02_quiz_api.aux}
\@writefile{toc}{\contentsline {chapter}{\numberline {6}Outlook}{120}{chapter.6}}
\@writefile{lof}{\addvspace {10\p@ }}
\@writefile{lot}{\addvspace {10\p@ }}
\@writefile{loa}{\addvspace {10\p@ }}
\bibdata{literatur}
\bibcite{distributed_vector_representations_2016}{ARK16}
\bibcite{fastText_2016}{BGJM16}
\bibcite{burrows_gurevych_stein_2014}{BGS14}
\bibcite{tree_edit_distance_survey_2005}{Bil05}
\bibcite{bloom_1984}{Blo84}
\bibcite{burstein_1996}{BWL99}
\bibcite{cheng_fox_2017}{CF17}
\bibcite{coates_2005}{CJB05}
\bibcite{cohen_1960}{Coh60}
\bibcite{dzikovska_2013}{DNB{$^{+}$}13}
\@writefile{toc}{\contentsline {chapter}{References}{123}{chapter*.145}}
\bibcite{fleiss_2003}{FLCP03}
\bibcite{django_framework}{Fou18}
\bibcite{friedl_2008}{Fri08}
\bibcite{graesser_chipman_haynes_olney_2005}{GCHO05}
\bibcite{gomaa_fahmy_2012}{GHW12}
\bibcite{deep_learning_for_nlp_2018}{GPJ18}
\bibcite{hearst_2000}{Hea00}
\bibcite{hyndman_2018}{Hyn18}
\bibcite{blackboard_asag_2018}{Inc18a}
\bibcite{datacamp_2018}{Inc18b}
\bibcite{hp_foundation_sas}{Inc18c}
\bibcite{khanacademy_2018}{Inc18d}
\bibcite{jiang_conrath_similarity_1997}{JC97}
\bibcite{jordan_mitchell_2009}{JM09}
\bibcite{jobbitt_donaldsen_heit_2015}{JT16}
\bibcite{SLPv3}{Jur18}
\bibcite{kohn_1999}{Koh99}
\bibcite{wmd_2015}{KSKW15}
\bibcite{kukich_92}{Kuk}
\bibcite{leacock_and_chodorow_similarity_1998}{LC98}
\bibcite{leacock_2004}{LS04}
\bibcite{mohler_bunescu_mihalcea_2011}{MBM11}
\bibcite{word2vec_2013}{MCCD13}
\bibcite{Mohler_2009}{MM09}
\bibcite{moodle_asag_2018}{Moo18}
\bibcite{mitchell_2002}{MRBA02}
\bibcite{manning_schutze_2008}{MS08}
\bibcite{Meurers_2011a}{MZOK11}
\bibcite{nkambou_2013}{NMB13}
\bibcite{germanet_2018}{oT18}
\bibcite{page_1966}{Pag66}
\bibcite{Pribadi_2017}{PAP{$^{+}$}17}
\bibcite{pearsall_2018}{Pea18}
\bibcite{information_content_measures_2010}{Ped10}
\bibcite{elixir_language}{Pla18}
\bibcite{bleu_score_2001}{PRWZ01}
\bibcite{pulman_2005}{PS05}
\bibcite{scikit_learn}{PVG{$^{+}$}11}
\bibcite{roy_narahari_deshmukh_2015}{RND15}
\bibcite{tree_edit_distance_2015}{SGAM{$^{+}$}15}
\bibcite{sultan_salazar_sumner_2016}{SSS16}
\bibcite{wu_palmer_similarity_1994}{WP94}
\bibcite{watson_2007}{WRW07}
\bibcite{attali_2006}{YB06}
\bibcite{yang_huang_zhuang_zhang_yu_2018}{YHZ{$^{+}$}18}
\bibstyle{alpha}
\@writefile{toc}{\contentsline {chapter}{Appendix}{128}{appendix.A}}
\@writefile{lof}{\addvspace {10\p@ }}
\@writefile{lot}{\addvspace {10\p@ }}
\@writefile{loa}{\addvspace {10\p@ }}
\@input{chapters/appendix/tables.aux}
\@input{chapters/appendix/algorithms.aux}
\@input{chapters/appendix/misc.aux}
\@input{chapters/appendix/glossary.aux}
\@input{chapters/Selbststaendigkeitserklaerung.aux}
