\relax 
\providecommand\hyper@newdestlabel[2]{}
\citation{moodle_asag_2018}
\citation{moodle_asag_2018}
\@writefile{toc}{\contentsline {section}{\numberline {4.1}Pattern Matching}{63}{section.4.1}}
\@writefile{toc}{\contentsline {subsection}{\numberline {4.1.1}Experiment (Exp. 1): Teacher Created Patterns}{63}{subsection.4.1.1}}
\@writefile{toc}{\contentsline {subsubsection}{Background, Reasoning and Hypotheses}{63}{section*.61}}
\@writefile{lof}{\contentsline {figure}{\numberline {4.1}{\ignorespaces Respondent CSV File: notice that in the \textit  {Full Credit Matches} column, as instructed, the respondent has created hash maps containing the name of a concept as the key, for example, \textit  {name\_of\_function}, and a list of patterns (regular expressions) to match for that concept as the value.}}{64}{figure.4.1}}
\newlabel{Regex_Exp_example_response}{{4.1}{64}{Respondent CSV File: notice that in the \textit {Full Credit Matches} column, as instructed, the respondent has created hash maps containing the name of a concept as the key, for example, \textit {name\_of\_function}, and a list of patterns (regular expressions) to match for that concept as the value}{figure.4.1}{}}
\@writefile{toc}{\contentsline {paragraph}{Hypotheses}{64}{section*.62}}
\@writefile{toc}{\contentsline {subsubsection}{Exp. 1: Presentation of Results}{65}{section*.63}}
\@writefile{toc}{\contentsline {subsubsection}{Exp. 1: TES.I-IV}{66}{section*.64}}
\@writefile{toc}{\contentsline {paragraph}{TES.I: Automatic Grade Assignment}{66}{section*.65}}
\@writefile{lof}{\contentsline {figure}{\numberline {4.2}{\ignorespaces The image shows the precision, recall and F1 scores per respondent for 6-class classification. SE1 is the author of this paper who is a software engineer, SE2 is another software engineer, HST is a high school teacher, and SE1\_ext is the version where this paper's author spent hours over the course of multiple days hand-crafting patterns by looking at student responses in order to get the best performance possible. The SE2 scores are lower than those of HST, providing evidence against $H_{1}$.}}{66}{figure.4.2}}
\newlabel{Regexp_accuracyScores}{{4.2}{66}{The image shows the precision, recall and F1 scores per respondent for 6-class classification. SE1 is the author of this paper who is a software engineer, SE2 is another software engineer, HST is a high school teacher, and SE1\_ext is the version where this paper's author spent hours over the course of multiple days hand-crafting patterns by looking at student responses in order to get the best performance possible. The SE2 scores are lower than those of HST, providing evidence against $H_{1}$}{figure.4.2}{}}
\@writefile{lof}{\contentsline {figure}{\numberline {4.3}{\ignorespaces Shows the R, Kappa, and MAE scores for each participant. Kappa shows very little association, R is around 35 for the best performers and the MAE is around 3. All of these indicate a lot of room for improvement. When comparing the best performing entry (the hand-crafted time extensive solution \textbf  {SE1\_ext}) to the maximums calculated after hand-grading the dataset there is still a lot of room for improvement.}}{67}{figure.4.3}}
\newlabel{Regexp_correlationScores}{{4.3}{67}{Shows the R, Kappa, and MAE scores for each participant. Kappa shows very little association, R is around 35 for the best performers and the MAE is around 3. All of these indicate a lot of room for improvement. When comparing the best performing entry (the hand-crafted time extensive solution \textbf {SE1\_ext}) to the maximums calculated after hand-grading the dataset there is still a lot of room for improvement}{figure.4.3}{}}
\@writefile{lof}{\contentsline {figure}{\numberline {4.4}{\ignorespaces Example illustrating the overall brittleness of the regular expression approach due to its full reliance on human created patterns. \textbf  {(A)} the correct concept should have something to do with unlimited or very many. \textbf  {(B)} The student response can be inferred to create very many or infinite constructors by its wording i.e. it is correct. \textbf  {(C)} There are regular expressions which are worded quite closely to the student's portion of the response that contains the concept, however, none of them actually match, therefore the algorithm falsely assigns a score of $0$.}}{68}{figure.4.4}}
\newlabel{Regexp_typicalExample_miss}{{4.4}{68}{Example illustrating the overall brittleness of the regular expression approach due to its full reliance on human created patterns. \textbf {(A)} the correct concept should have something to do with unlimited or very many. \textbf {(B)} The student response can be inferred to create very many or infinite constructors by its wording i.e. it is correct. \textbf {(C)} There are regular expressions which are worded quite closely to the student's portion of the response that contains the concept, however, none of them actually match, therefore the algorithm falsely assigns a score of $0$}{figure.4.4}{}}
\@writefile{lof}{\contentsline {figure}{\numberline {4.5}{\ignorespaces Precision, recall and F1 scores per respondent for the task of binary classification. The precision is relatively good - over 85\% in all cases, however, this method classifies roughly 7 out of 10 answers which are correct as failing. This would be extremely frustrating for students in an online course. Even the hand-crafted elite version fails on 2 out of 5 correct student responses - though when it does decide to pass a student response it is correct in doing so 9 out of 10 times.}}{69}{figure.4.5}}
\newlabel{Regexp_accuracyScores_binary}{{4.5}{69}{Precision, recall and F1 scores per respondent for the task of binary classification. The precision is relatively good - over 85\% in all cases, however, this method classifies roughly 7 out of 10 answers which are correct as failing. This would be extremely frustrating for students in an online course. Even the hand-crafted elite version fails on 2 out of 5 correct student responses - though when it does decide to pass a student response it is correct in doing so 9 out of 10 times}{figure.4.5}{}}
\@writefile{toc}{\contentsline {paragraph}{TES.II: Time and Space Complexity}{69}{section*.66}}
\@writefile{toc}{\contentsline {paragraph}{TES.III: Amount of Teacher Expertise and Effort Required}{70}{section*.67}}
\@writefile{toc}{\contentsline {paragraph}{TES.IV: Fulfillment of Desired Characteristics for Stembord}{70}{section*.68}}
\@writefile{toc}{\contentsline {paragraph}{Formative Feedback}{70}{section*.69}}
\@writefile{lof}{\contentsline {figure}{\numberline {4.6}{\ignorespaces Rendering of an automatically graded student response after feedback has been shown. A user of such a system can easily and transparently observe which concepts were detected by the algorithm, how many points were received per concept and whether a concept was a complete or partial match.}}{71}{figure.4.6}}
\newlabel{s4_fig_formative_feedback}{{4.6}{71}{Rendering of an automatically graded student response after feedback has been shown. A user of such a system can easily and transparently observe which concepts were detected by the algorithm, how many points were received per concept and whether a concept was a complete or partial match}{figure.4.6}{}}
\@writefile{toc}{\contentsline {paragraph}{Works for Self-Study and Teacher-Guided Classrooms}{71}{section*.70}}
\@writefile{toc}{\contentsline {paragraph}{Effectiveness Across Languages}{71}{section*.71}}
\@writefile{toc}{\contentsline {subsubsection}{Conclusion}{71}{section*.72}}
\@setckpt{chapters/experiments/01_regular_expressions}{
\setcounter{page}{73}
\setcounter{equation}{0}
\setcounter{enumi}{3}
\setcounter{enumii}{0}
\setcounter{enumiii}{0}
\setcounter{enumiv}{0}
\setcounter{footnote}{2}
\setcounter{mpfootnote}{0}
\setcounter{part}{0}
\setcounter{section}{1}
\setcounter{subsection}{1}
\setcounter{subsubsection}{0}
\setcounter{paragraph}{0}
\setcounter{subparagraph}{0}
\setcounter{figure}{6}
\setcounter{table}{0}
\setcounter{chapter}{4}
\setcounter{theorem}{0}
\setcounter{prob}{0}
\setcounter{merk}{0}
\setcounter{Item}{54}
\setcounter{Hfootnote}{5}
\setcounter{bookmark@seq@number}{47}
\setcounter{lstnumber}{13}
\setcounter{parentequation}{0}
\setcounter{AlgoLine}{0}
\setcounter{algocfline}{0}
\setcounter{algocfproc}{0}
\setcounter{algocf}{0}
\setcounter{float@type}{8}
\setcounter{section@level}{3}
\setcounter{lstlisting}{0}
}
