\relax 
\providecommand\hyper@newdestlabel[2]{}
\@writefile{toc}{\contentsline {section}{\numberline {4.2}Lexical Structure}{73}{section.4.2}}
\newlabel{Section_Lexical_Structure}{{4.2}{73}{Lexical Structure}{section.4.2}{}}
\@writefile{toc}{\contentsline {subsection}{\numberline {4.2.1}Exp. 1: Word Overlap Measures}{73}{subsection.4.2.1}}
\newlabel{Subsection_Word_Overlap_Measures}{{4.2.1}{73}{Exp. 1: Word Overlap Measures}{subsection.4.2.1}{}}
\@writefile{toc}{\contentsline {subsubsection}{Exp. 1: Background, Reasoning and Hypotheses}{73}{section*.73}}
\@writefile{toc}{\contentsline {paragraph}{Hypotheses}{73}{section*.74}}
\citation{Pribadi_2017}
\@writefile{toc}{\contentsline {subsubsection}{Exp. 1: Presentation of Results}{74}{section*.75}}
\@writefile{toc}{\contentsline {subsubsection}{Exp. 1: TES.I-IV}{74}{section*.76}}
\@writefile{toc}{\contentsline {paragraph}{TES.I: Automatic Grade Assignment}{74}{section*.77}}
\@writefile{lof}{\contentsline {figure}{\numberline {4.7}{\ignorespaces The chart compares the scores of each word overlap technique. There are trade-offs for each method, with the jaccard coefficient having the highest precision and lowest recall scores and the faucett coefficient allowing for lower precision while increasing recall. Overall, however, the recall and F1 scores of all of these methods are far too low to be effective for ASAG.}}{75}{figure.4.7}}
\newlabel{WordOverlap_accuracyScores}{{4.7}{75}{The chart compares the scores of each word overlap technique. There are trade-offs for each method, with the jaccard coefficient having the highest precision and lowest recall scores and the faucett coefficient allowing for lower precision while increasing recall. Overall, however, the recall and F1 scores of all of these methods are far too low to be effective for ASAG}{figure.4.7}{}}
\@writefile{lof}{\contentsline {figure}{\numberline {4.8}{\ignorespaces The correlation coefficients and mean absolute errors are somewhat better than the regular expression experiment, providing a hint that the number of shared tokens between two sentences does correlate with their assigned human score.}}{75}{figure.4.8}}
\newlabel{WordOverlap_correlationScores}{{4.8}{75}{The correlation coefficients and mean absolute errors are somewhat better than the regular expression experiment, providing a hint that the number of shared tokens between two sentences does correlate with their assigned human score}{figure.4.8}{}}
\@writefile{toc}{\contentsline {paragraph}{TES.II: Time and Space Complexity}{75}{section*.78}}
\@writefile{lof}{\contentsline {figure}{\numberline {4.9}{\ignorespaces The coefficient methods for only those \textit  {(model-answer, student-response)} pairs which have an overlap $x > 75\%$. There the methods tend to mispredict the perfect score class 5.0 as 4.0. This is due to the fact that any differences between two sentences demote a score, so even highly similar sentences will not have a perfect score unless they are identical or close to it. Still, for sentences with a high token overlap this approach seems pretty effective.}}{76}{figure.4.9}}
\newlabel{WordOverlap_h1_detectionOfCorrect}{{4.9}{76}{The coefficient methods for only those \textit {(model-answer, student-response)} pairs which have an overlap $x > 75\%$. There the methods tend to mispredict the perfect score class 5.0 as 4.0. This is due to the fact that any differences between two sentences demote a score, so even highly similar sentences will not have a perfect score unless they are identical or close to it. Still, for sentences with a high token overlap this approach seems pretty effective}{figure.4.9}{}}
\@writefile{lof}{\contentsline {figure}{\numberline {4.10}{\ignorespaces \textbf  {(A)} the wording of the model answer and \textbf  {(B)} the corresponding and correct yet different wording of the student answer. None of the tokens in the \textit  {Model} and \textit  {Student Answer Set}s are shared. This is one of the fundamental problems of the Word Overlap techniques; the inability to recognize correct but differently phrased student responses.}}{76}{figure.4.10}}
\newlabel{WordOverlap_h2_falseNegative}{{4.10}{76}{\textbf {(A)} the wording of the model answer and \textbf {(B)} the corresponding and correct yet different wording of the student answer. None of the tokens in the \textit {Model} and \textit {Student Answer Set}s are shared. This is one of the fundamental problems of the Word Overlap techniques; the inability to recognize correct but differently phrased student responses}{figure.4.10}{}}
\@writefile{toc}{\contentsline {paragraph}{TES.III: Amount of Teacher Expertise and Effort Required}{77}{section*.79}}
\@writefile{toc}{\contentsline {paragraph}{TES.IV: Fulfillment of Desired Characteristics for Stembord}{77}{section*.80}}
\@writefile{toc}{\contentsline {paragraph}{Formative Feedback}{77}{section*.81}}
\@writefile{toc}{\contentsline {paragraph}{Works for Self-Study and Teacher-Guided Classrooms}{77}{section*.82}}
\@writefile{toc}{\contentsline {paragraph}{Effectiveness Across Languages}{77}{section*.83}}
\@writefile{lof}{\contentsline {figure}{\numberline {4.11}{\ignorespaces For self-study courses which use a pass/fail scoring architecture the word overlap methods are decent, although still probably too frustrating to be usable. For instance, the best performing faucett approach fails 1 out of every 2 correct student responses and when it passes a student response that response is only correct 3 out of 4 times.}}{78}{figure.4.11}}
\newlabel{WordOverlap_binaryClassification}{{4.11}{78}{For self-study courses which use a pass/fail scoring architecture the word overlap methods are decent, although still probably too frustrating to be usable. For instance, the best performing faucett approach fails 1 out of every 2 correct student responses and when it passes a student response that response is only correct 3 out of 4 times}{figure.4.11}{}}
\@writefile{toc}{\contentsline {subsubsection}{Conclusion}{78}{section*.84}}
\citation{bleu_score_2001}
\@writefile{toc}{\contentsline {subsection}{\numberline {4.2.2}Exp. 2: N-gram Comparisons}{79}{subsection.4.2.2}}
\@writefile{toc}{\contentsline {subsubsection}{Exp. 2: Background, Reasoning and Hypotheses}{79}{section*.85}}
\newlabel{ngrams_ScoringEquation}{{4.1}{80}{Exp. 2: Background, Reasoning and Hypotheses}{equation.4.2.1}{}}
\@writefile{toc}{\contentsline {subsubsection}{Exp. 2: Presentation of Results}{80}{section*.86}}
\@writefile{toc}{\contentsline {subsubsection}{Exp. 2: TES.I-IV}{80}{section*.87}}
\@writefile{toc}{\contentsline {paragraph}{TES.I: Automatic Grade Assignment}{80}{section*.88}}
\@writefile{lof}{\contentsline {figure}{\numberline {4.12}{\ignorespaces Notice the increase in precision and recall at the transition from unigrams (N1) to bigrams (N2). Just as important is the very minimal increase from N2 to N3, which shows that trigram modeling is roughly equivalent to bigrams for this approach and perhaps doesn't warrent the increased algorithmic complexity for the tiny gain in score modeling.}}{81}{figure.4.12}}
\newlabel{ngrams_NSizeComparison}{{4.12}{81}{Notice the increase in precision and recall at the transition from unigrams (N1) to bigrams (N2). Just as important is the very minimal increase from N2 to N3, which shows that trigram modeling is roughly equivalent to bigrams for this approach and perhaps doesn't warrent the increased algorithmic complexity for the tiny gain in score modeling}{figure.4.12}{}}
\@writefile{lof}{\contentsline {figure}{\numberline {4.13}{\ignorespaces The \textit  {n}-gram approach falsely predicts the student response as having a perfect score, whereas the human grader gave a $2.0$. This is because almost all the created \textit  {n}-grams overlap, however, the ordering between sentences is different and significant. This information is not capture by the \textit  {n}-gram approach or word overlap or BoW approaches in general.}}{82}{figure.4.13}}
\newlabel{ngrams_wordOrderMiss}{{4.13}{82}{The \textit {n}-gram approach falsely predicts the student response as having a perfect score, whereas the human grader gave a $2.0$. This is because almost all the created \textit {n}-grams overlap, however, the ordering between sentences is different and significant. This information is not capture by the \textit {n}-gram approach or word overlap or BoW approaches in general}{figure.4.13}{}}
\@writefile{toc}{\contentsline {paragraph}{TES.II: Time and Space Complexity}{82}{section*.89}}
\@writefile{toc}{\contentsline {paragraph}{TES.III: Amount of Teacher Expertise and Effort Required}{82}{section*.90}}
\@writefile{lof}{\contentsline {figure}{\numberline {4.14}{\ignorespaces Score modeling increases as the number of model answers (MA) grows from $1$ to $3$. Recall improves dramatically because adding more model answers allows the scoring algorithm to find correct student responses which are worded or phrased differently.}}{83}{figure.4.14}}
\newlabel{ngrams_multipleModelAnswers}{{4.14}{83}{Score modeling increases as the number of model answers (MA) grows from $1$ to $3$. Recall improves dramatically because adding more model answers allows the scoring algorithm to find correct student responses which are worded or phrased differently}{figure.4.14}{}}
\@writefile{toc}{\contentsline {paragraph}{TES.IV: Fulfillment of Desired Characteristics for Stembord}{83}{section*.91}}
\@writefile{toc}{\contentsline {paragraph}{Formative Feedback}{83}{section*.92}}
\@writefile{toc}{\contentsline {paragraph}{Works for Self-Study and Teacher-Guided Classrooms}{83}{section*.93}}
\@writefile{lof}{\contentsline {figure}{\numberline {4.15}{\ignorespaces Notice how many correct ($1$) student responses are predicted to fail and scored with a $0$ by the \textit  {n}-gram model, this would lead to high end-user frustration making it difficult to apply this approach for self-study classrooms.}}{84}{figure.4.15}}
\newlabel{ngrams_passFailMatrix}{{4.15}{84}{Notice how many correct ($1$) student responses are predicted to fail and scored with a $0$ by the \textit {n}-gram model, this would lead to high end-user frustration making it difficult to apply this approach for self-study classrooms}{figure.4.15}{}}
\@writefile{toc}{\contentsline {paragraph}{Effectiveness Across Languages}{84}{section*.94}}
\@writefile{toc}{\contentsline {subsubsection}{Conclusion}{84}{section*.95}}
\@setckpt{chapters/experiments/02_lexical_features}{
\setcounter{page}{85}
\setcounter{equation}{1}
\setcounter{enumi}{3}
\setcounter{enumii}{0}
\setcounter{enumiii}{0}
\setcounter{enumiv}{0}
\setcounter{footnote}{2}
\setcounter{mpfootnote}{0}
\setcounter{part}{0}
\setcounter{section}{2}
\setcounter{subsection}{2}
\setcounter{subsubsection}{0}
\setcounter{paragraph}{0}
\setcounter{subparagraph}{0}
\setcounter{figure}{15}
\setcounter{table}{0}
\setcounter{chapter}{4}
\setcounter{theorem}{0}
\setcounter{prob}{0}
\setcounter{merk}{0}
\setcounter{Item}{60}
\setcounter{Hfootnote}{5}
\setcounter{bookmark@seq@number}{50}
\setcounter{lstnumber}{13}
\setcounter{parentequation}{0}
\setcounter{AlgoLine}{0}
\setcounter{algocfline}{0}
\setcounter{algocfproc}{0}
\setcounter{algocf}{0}
\setcounter{float@type}{8}
\setcounter{section@level}{3}
\setcounter{lstlisting}{0}
}
