\relax 
\providecommand\hyper@newdestlabel[2]{}
\citation{bleu_score_2001}
\@writefile{toc}{\contentsline {section}{\numberline {4.3}Syntactical Structure}{85}{section.4.3}}
\newlabel{Section_Syntactical_Structure}{{4.3}{85}{Syntactical Structure}{section.4.3}{}}
\@writefile{lof}{\contentsline {figure}{\numberline {4.16}{\ignorespaces Observe how the highlighted POS (Part-of-Speech) tags are not only identical but also share the exact same order in the \textit  {(model-answer, student-response)} pair despite the fact that both sentences represent completely unrelated ideas. This demonstrates the lack of usefulness of running experiments which use syntax alone to grade student responses.}}{85}{figure.4.16}}
\newlabel{syntax_whyNotScores}{{4.16}{85}{Observe how the highlighted POS (Part-of-Speech) tags are not only identical but also share the exact same order in the \textit {(model-answer, student-response)} pair despite the fact that both sentences represent completely unrelated ideas. This demonstrates the lack of usefulness of running experiments which use syntax alone to grade student responses}{figure.4.16}{}}
\@writefile{toc}{\contentsline {subsection}{\numberline {4.3.1}Exp. 1: Edit Distances and Bleu-Score}{85}{subsection.4.3.1}}
\@writefile{toc}{\contentsline {subsubsection}{Exp. 1: Background, Reasoning and Hypotheses}{85}{section*.96}}
\@writefile{toc}{\contentsline {paragraph}{Hypotheses}{85}{section*.97}}
\citation{tree_edit_distance_survey_2005}
\@writefile{toc}{\contentsline {subsubsection}{Exp. 1: Presentation of Results}{86}{section*.98}}
\@writefile{toc}{\contentsline {subsubsection}{Exp. 1: TES.I-IV}{86}{section*.99}}
\@writefile{toc}{\contentsline {paragraph}{TES.I: Automatic Grade Assignment}{86}{section*.100}}
\@writefile{lof}{\contentsline {figure}{\numberline {4.17}{\ignorespaces \textbf  {(A)} the histogram and scatter plot with correlation coefficient $r=0.247$ between the bleu score and target variable for the entire dataset. \textbf  {(B)} same as \textbf  {(A)} except only for the lower scores of the dataset i.e. those with failing grades or very low scores with $r=0.134$. The bleu score tends to be lower for lower scores. This indicates that the structure of lower scored student responses does indeed differ from those responses which receive higher grades.}}{87}{figure.4.17}}
\newlabel{syntax_bleuScore}{{4.17}{87}{\textbf {(A)} the histogram and scatter plot with correlation coefficient $r=0.247$ between the bleu score and target variable for the entire dataset. \textbf {(B)} same as \textbf {(A)} except only for the lower scores of the dataset i.e. those with failing grades or very low scores with $r=0.134$. The bleu score tends to be lower for lower scores. This indicates that the structure of lower scored student responses does indeed differ from those responses which receive higher grades}{figure.4.17}{}}
\@writefile{toc}{\contentsline {paragraph}{TES.II: Time and Space Complexity}{87}{section*.101}}
\@writefile{lof}{\contentsline {figure}{\numberline {4.18}{\ignorespaces The token based edit distance (token\_based\_ED) and tree edit distance (Tree\_ED) provide the highest negative correlations with scoring. The token based and tree edit distances correlate the least with one another, indicating that they are exctracting different pieces of information from the underlying student responses. These two are likely good potential feature candidates for features extracting syntactic information in a machine learning model.}}{88}{figure.4.18}}
\newlabel{syntax_editDistanceCorrelations}{{4.18}{88}{The token based edit distance (token\_based\_ED) and tree edit distance (Tree\_ED) provide the highest negative correlations with scoring. The token based and tree edit distances correlate the least with one another, indicating that they are exctracting different pieces of information from the underlying student responses. These two are likely good potential feature candidates for features extracting syntactic information in a machine learning model}{figure.4.18}{}}
\@writefile{toc}{\contentsline {paragraph}{TES.III: Amount of Teacher Expertise and Effort Required}{88}{section*.102}}
\@writefile{toc}{\contentsline {paragraph}{TES.IV: Fulfillment of Desired Characteristics for Stembord}{88}{section*.103}}
\@writefile{toc}{\contentsline {paragraph}{Effectiveness Across Languages}{88}{section*.104}}
\@writefile{toc}{\contentsline {subsubsection}{Conclusion}{88}{section*.105}}
\@writefile{lof}{\contentsline {figure}{\numberline {4.19}{\ignorespaces Hand picked examples from question 12.3 from the Mohler v2.0 dataset. \textbf  {(A)} perfect score and perfect syntactical match between student response and model answer; the Edit Distances (ED) are both $0.0$. \textbf  {(B)} The ordering of the student answer differs slightly from the model answer, which forces the edit distances to increase in order to transform the student response into the model answer and this transformation cost is indicative of a lower human assigned grade, here $2.0$. \textit  {(C)} An example where the student response is utterly different from the model answer and consequently has the highest token-based and tree edit distances.}}{89}{figure.4.19}}
\newlabel{syntax_editDistance_OrderExample}{{4.19}{89}{Hand picked examples from question 12.3 from the Mohler v2.0 dataset. \textbf {(A)} perfect score and perfect syntactical match between student response and model answer; the Edit Distances (ED) are both $0.0$. \textbf {(B)} The ordering of the student answer differs slightly from the model answer, which forces the edit distances to increase in order to transform the student response into the model answer and this transformation cost is indicative of a lower human assigned grade, here $2.0$. \textit {(C)} An example where the student response is utterly different from the model answer and consequently has the highest token-based and tree edit distances}{figure.4.19}{}}
\@setckpt{chapters/experiments/03_syntax}{
\setcounter{page}{90}
\setcounter{equation}{1}
\setcounter{enumi}{2}
\setcounter{enumii}{0}
\setcounter{enumiii}{0}
\setcounter{enumiv}{0}
\setcounter{footnote}{2}
\setcounter{mpfootnote}{0}
\setcounter{part}{0}
\setcounter{section}{3}
\setcounter{subsection}{1}
\setcounter{subsubsection}{0}
\setcounter{paragraph}{0}
\setcounter{subparagraph}{0}
\setcounter{figure}{19}
\setcounter{table}{0}
\setcounter{chapter}{4}
\setcounter{theorem}{0}
\setcounter{prob}{0}
\setcounter{merk}{0}
\setcounter{Item}{62}
\setcounter{Hfootnote}{5}
\setcounter{bookmark@seq@number}{52}
\setcounter{lstnumber}{13}
\setcounter{parentequation}{0}
\setcounter{AlgoLine}{0}
\setcounter{algocfline}{0}
\setcounter{algocfproc}{0}
\setcounter{algocf}{0}
\setcounter{float@type}{8}
\setcounter{section@level}{3}
\setcounter{lstlisting}{0}
}
