\relax 
\providecommand\hyper@newdestlabel[2]{}
\@writefile{toc}{\contentsline {section}{\numberline {4.4}Semantics}{90}{section.4.4}}
\newlabel{Section_Semantics}{{4.4}{90}{Semantics}{section.4.4}{}}
\@writefile{toc}{\contentsline {subsection}{\numberline {4.4.1}Exp. 1: Knowledge and Corpus Based Meaning}{90}{subsection.4.4.1}}
\newlabel{Subsection_Knowledge_and_Corpus_Based_Meaning}{{4.4.1}{90}{Exp. 1: Knowledge and Corpus Based Meaning}{subsection.4.4.1}{}}
\@writefile{toc}{\contentsline {subsubsection}{Exp. 1: Background, Reasoning and Hypotheses}{90}{section*.106}}
\citation{Mohler_2009}
\@writefile{toc}{\contentsline {paragraph}{Hypotheses}{91}{section*.107}}
\@writefile{toc}{\contentsline {subsubsection}{Exp. 1: Presentation of Results}{91}{section*.108}}
\@writefile{toc}{\contentsline {subsubsection}{Exp. 1: TES.I-IV}{91}{section*.109}}
\@writefile{toc}{\contentsline {paragraph}{TES.I: Automatic Grade Assignment}{91}{section*.110}}
\@writefile{lof}{\contentsline {figure}{\numberline {4.20}{\ignorespaces Accuracy scores for Shortest Path (SP), Leacock \& Chodorow (LCH), Wu \& Palmer (WP), Resnik (RES), Jiang \& Conrath (JCH) and Lin (LIN). The Lin technique, which uses a combined approach of both the \textit  {WordNet} knowledge base and Information Content from a text corpus, was more lenient than JCH at the cost of some precision. Overall, the WP measure provides the best balance between precision and recall for the ASAG task on this dataset.}}{92}{figure.4.20}}
\newlabel{sem_kbAccuracyScores}{{4.20}{92}{Accuracy scores for Shortest Path (SP), Leacock \& Chodorow (LCH), Wu \& Palmer (WP), Resnik (RES), Jiang \& Conrath (JCH) and Lin (LIN). The Lin technique, which uses a combined approach of both the \textit {WordNet} knowledge base and Information Content from a text corpus, was more lenient than JCH at the cost of some precision. Overall, the WP measure provides the best balance between precision and recall for the ASAG task on this dataset}{figure.4.20}{}}
\@writefile{lot}{\contentsline {table}{\numberline {4.1}{\ignorespaces Correlation coefficients for each knowledge and corpus-based similarity measure.}}{92}{table.4.1}}
\newlabel{sem_kb_correlationCoefficient}{{4.1}{92}{Correlation coefficients for each knowledge and corpus-based similarity measure}{table.4.1}{}}
\@writefile{lof}{\contentsline {figure}{\numberline {4.21}{\ignorespaces Accuracy scores for Shortest Path (SP), Leacock \& Chodorow (LCH), Wu \& Palmer (WP), Resnik (RES), Jiang \& Conrath (JCH) and Lin (LIN). Overall, a boost is obtained by using three Model Answers (MA=3), however, it was less than the hypothesized $10\%$ and had a positive impact much more on recall than on precision}}{93}{figure.4.21}}
\newlabel{sem_kbAccuracyScores_ma3}{{4.21}{93}{Accuracy scores for Shortest Path (SP), Leacock \& Chodorow (LCH), Wu \& Palmer (WP), Resnik (RES), Jiang \& Conrath (JCH) and Lin (LIN). Overall, a boost is obtained by using three Model Answers (MA=3), however, it was less than the hypothesized $10\%$ and had a positive impact much more on recall than on precision}{figure.4.21}{}}
\@writefile{lof}{\contentsline {figure}{\numberline {4.22}{\ignorespaces Example of a predicted score from the dataset using the Jiang and Conrath method. \textbf  {(A)} shows that the phrases \textit  {Extra space} and \textit  {more memory} are detected as related as well as the words \textit  {back} and \textit  {previous}, which all then contribute to the predicted score.}}{94}{figure.4.22}}
\newlabel{sem_synonymExample}{{4.22}{94}{Example of a predicted score from the dataset using the Jiang and Conrath method. \textbf {(A)} shows that the phrases \textit {Extra space} and \textit {more memory} are detected as related as well as the words \textit {back} and \textit {previous}, which all then contribute to the predicted score}{figure.4.22}{}}
\@writefile{toc}{\contentsline {paragraph}{TES.II: Time and Space Complexity}{94}{section*.111}}
\@writefile{toc}{\contentsline {paragraph}{TES.III: Amount of Teacher Expertise and Effort Required}{94}{section*.112}}
\@writefile{toc}{\contentsline {paragraph}{TES.IV: Fulfillment of Desired Characteristics for Stembord}{94}{section*.113}}
\@writefile{toc}{\contentsline {paragraph}{Formative Feedback}{94}{section*.114}}
\@writefile{toc}{\contentsline {paragraph}{Works for Self-Study and Teacher-Guided Classrooms}{95}{section*.115}}
\@writefile{lof}{\contentsline {figure}{\numberline {4.23}{\ignorespaces Pass/Fail Accuracy Scores for Shortest Path (SP), Leacock \& Chodorow (LCH), Wu \& Palmer (WP), Resnik (RES), Jiang \& Conrath (JCH) and Lin (LIN).}}{95}{figure.4.23}}
\newlabel{sem_kbPassFailAccuracyScores}{{4.23}{95}{Pass/Fail Accuracy Scores for Shortest Path (SP), Leacock \& Chodorow (LCH), Wu \& Palmer (WP), Resnik (RES), Jiang \& Conrath (JCH) and Lin (LIN)}{figure.4.23}{}}
\@writefile{toc}{\contentsline {paragraph}{Effectiveness Across Languages}{95}{section*.116}}
\@writefile{toc}{\contentsline {subsubsection}{Conclusion}{96}{section*.117}}
\@writefile{toc}{\contentsline {subsection}{\numberline {4.4.2}Exp. 2: Word Embeddings}{96}{subsection.4.4.2}}
\newlabel{Subsection_Word_Embeddings}{{4.4.2}{96}{Exp. 2: Word Embeddings}{subsection.4.4.2}{}}
\@writefile{toc}{\contentsline {subsubsection}{Exp. 2: Background, Reasoning and Hypotheses}{96}{section*.118}}
\@writefile{toc}{\contentsline {paragraph}{Hypotheses}{96}{section*.119}}
\citation{distributed_vector_representations_2016}
\@writefile{toc}{\contentsline {subsubsection}{Exp. 2: Presentation of Results}{97}{section*.120}}
\@writefile{toc}{\contentsline {subsubsection}{Exp. 2: TES.I-IV}{97}{section*.121}}
\@writefile{toc}{\contentsline {paragraph}{TES.I: Automatic Grade Assignment}{97}{section*.122}}
\@writefile{lof}{\contentsline {figure}{\numberline {4.24}{\ignorespaces Displays accuracy scores for \textit  {Word2Vec (w2v)} and \textit  {FastText (ft)} models for \textit  {n}-gram sizes from $n=1$ to $n=3$. At every level \textit  {FastText} outperforms \textit  {Word2Vec} and using more \textit  {n}-grams increases both precision and recall.}}{98}{figure.4.24}}
\newlabel{sem_vsmNGramModelScores}{{4.24}{98}{Displays accuracy scores for \textit {Word2Vec (w2v)} and \textit {FastText (ft)} models for \textit {n}-gram sizes from $n=1$ to $n=3$. At every level \textit {FastText} outperforms \textit {Word2Vec} and using more \textit {n}-grams increases both precision and recall}{figure.4.24}{}}
\@writefile{lof}{\contentsline {figure}{\numberline {4.25}{\ignorespaces Accuracy Scores for using multiple model answers (MA) \textit  {Word2Vec (w2v)} embeddings and \textit  {FastText (ft)}embeddings. This demonstrates that increasing model answers improves ASAG performance significantly, albeit with diminishing returns.}}{99}{figure.4.25}}
\newlabel{sem_vsmModelAnswerScores}{{4.25}{99}{Accuracy Scores for using multiple model answers (MA) \textit {Word2Vec (w2v)} embeddings and \textit {FastText (ft)}embeddings. This demonstrates that increasing model answers improves ASAG performance significantly, albeit with diminishing returns}{figure.4.25}{}}
\@writefile{toc}{\contentsline {paragraph}{TES.II: Time and Space Complexity}{99}{section*.123}}
\@writefile{toc}{\contentsline {paragraph}{TES.III: Amount of Teacher Expertise and Effort Required}{99}{section*.124}}
\@writefile{toc}{\contentsline {paragraph}{TES.IV: Fulfillment of Desired Characteristics for Stembord}{100}{section*.125}}
\@writefile{toc}{\contentsline {paragraph}{Formative Feedback}{100}{section*.126}}
\@writefile{toc}{\contentsline {paragraph}{Works for Self-Study and Teacher-Guided Classrooms}{100}{section*.127}}
\@writefile{toc}{\contentsline {paragraph}{Effectiveness Across Languages}{100}{section*.128}}
\@writefile{toc}{\contentsline {subsubsection}{Conclusion}{101}{section*.129}}
\@setckpt{chapters/experiments/04_semantics}{
\setcounter{page}{102}
\setcounter{equation}{1}
\setcounter{enumi}{5}
\setcounter{enumii}{0}
\setcounter{enumiii}{0}
\setcounter{enumiv}{0}
\setcounter{footnote}{3}
\setcounter{mpfootnote}{0}
\setcounter{part}{0}
\setcounter{section}{4}
\setcounter{subsection}{2}
\setcounter{subsubsection}{0}
\setcounter{paragraph}{0}
\setcounter{subparagraph}{0}
\setcounter{figure}{25}
\setcounter{table}{1}
\setcounter{chapter}{4}
\setcounter{theorem}{0}
\setcounter{prob}{0}
\setcounter{merk}{0}
\setcounter{Item}{70}
\setcounter{Hfootnote}{6}
\setcounter{bookmark@seq@number}{55}
\setcounter{lstnumber}{13}
\setcounter{parentequation}{0}
\setcounter{AlgoLine}{0}
\setcounter{algocfline}{0}
\setcounter{algocfproc}{0}
\setcounter{algocf}{0}
\setcounter{float@type}{8}
\setcounter{section@level}{3}
\setcounter{lstlisting}{0}
}
