\relax 
\providecommand\hyper@newdestlabel[2]{}
\@writefile{toc}{\contentsline {section}{\numberline {4.5}Machine Learning}{102}{section.4.5}}
\@writefile{toc}{\contentsline {subsection}{\numberline {4.5.1}Exp. 1: Hybrid Approach with Machine Learning}{102}{subsection.4.5.1}}
\newlabel{Exp_ml_Classification_Scoring}{{4.5.1}{102}{Exp. 1: Hybrid Approach with Machine Learning}{subsection.4.5.1}{}}
\@writefile{toc}{\contentsline {subsubsection}{Exp. 1: Background, Reasoning and Hypotheses}{102}{section*.130}}
\@writefile{toc}{\contentsline {paragraph}{Features}{102}{section*.131}}
\citation{sultan_salazar_sumner_2016}
\citation{distributed_vector_representations_2016}
\@writefile{toc}{\contentsline {subsubsection}{Exp. 1: Presentation of Results}{104}{section*.132}}
\@writefile{toc}{\contentsline {subsubsection}{Exp. 1: TES.I-IV}{104}{section*.133}}
\@writefile{toc}{\contentsline {paragraph}{TES.I: Automatic Grade Assignment}{104}{section*.134}}
\@writefile{lof}{\contentsline {figure}{\numberline {4.26}{\ignorespaces This compares the results using the regular features across all three models vs. the results obtained by adding the \textit  {Missed Concept} and \textit  {Partially Missed Concept} features. Both show significant improvements over the previously studied approaches, however, by adding the concept features the models are able to attain human level grading capabilities.}}{104}{figure.4.26}}
\newlabel{ml_accuracyScores}{{4.26}{104}{This compares the results using the regular features across all three models vs. the results obtained by adding the \textit {Missed Concept} and \textit {Partially Missed Concept} features. Both show significant improvements over the previously studied approaches, however, by adding the concept features the models are able to attain human level grading capabilities}{figure.4.26}{}}
\@writefile{toc}{\contentsline {paragraph}{TES.II: Time and Space Complexity}{104}{section*.135}}
\@writefile{toc}{\contentsline {paragraph}{TES.III: Amount of Teacher Expertise and Effort Required}{104}{section*.136}}
\@writefile{toc}{\contentsline {paragraph}{TES.IV: Fulfillment of Desired Characteristics for Stembord}{105}{section*.137}}
\@writefile{toc}{\contentsline {paragraph}{Formative Feedback}{105}{section*.138}}
\@writefile{toc}{\contentsline {paragraph}{Works for Self-Study and Teacher-Guided Classrooms}{105}{section*.139}}
\@writefile{toc}{\contentsline {paragraph}{Effectiveness Across Languages}{105}{section*.140}}
\@writefile{toc}{\contentsline {subsubsection}{Conclusion}{105}{section*.141}}
\@setckpt{chapters/experiments/05_machine_learning}{
\setcounter{page}{106}
\setcounter{equation}{1}
\setcounter{enumi}{7}
\setcounter{enumii}{0}
\setcounter{enumiii}{0}
\setcounter{enumiv}{0}
\setcounter{footnote}{3}
\setcounter{mpfootnote}{0}
\setcounter{part}{0}
\setcounter{section}{5}
\setcounter{subsection}{1}
\setcounter{subsubsection}{0}
\setcounter{paragraph}{0}
\setcounter{subparagraph}{0}
\setcounter{figure}{26}
\setcounter{table}{1}
\setcounter{chapter}{4}
\setcounter{theorem}{0}
\setcounter{prob}{0}
\setcounter{merk}{0}
\setcounter{Item}{77}
\setcounter{Hfootnote}{6}
\setcounter{bookmark@seq@number}{57}
\setcounter{lstnumber}{13}
\setcounter{parentequation}{0}
\setcounter{AlgoLine}{0}
\setcounter{algocfline}{0}
\setcounter{algocfproc}{0}
\setcounter{algocf}{0}
\setcounter{float@type}{8}
\setcounter{section@level}{3}
\setcounter{lstlisting}{0}
}
