\relax 
\providecommand\hyper@newdestlabel[2]{}
\citation{elixir_language}
\@writefile{toc}{\contentsline {section}{\numberline {5.1}Stembord Components}{109}{section.5.1}}
\@writefile{toc}{\contentsline {subsubsection}{Stembord Architecture and System Design}{109}{section*.142}}
\@writefile{lof}{\contentsline {figure}{\numberline {5.1}{\ignorespaces The Users, Roles and Organization structural components of Stembord.}}{109}{figure.5.1}}
\newlabel{impl_mainStembordComponents}{{5.1}{109}{The Users, Roles and Organization structural components of Stembord}{figure.5.1}{}}
\@writefile{toc}{\contentsline {subsubsection}{Lessons in Stembord}{110}{section*.143}}
\@writefile{lof}{\contentsline {figure}{\numberline {5.2}{\ignorespaces The structure of LOs on Stembord. Lessons are made up of nodes. Lessons have metadata associated with them and a node can have a node question data structure if its \textit  {NodeType} attribute designates it as being a question node.}}{110}{figure.5.2}}
\newlabel{impl_stembordLearningObjects}{{5.2}{110}{The structure of LOs on Stembord. Lessons are made up of nodes. Lessons have metadata associated with them and a node can have a node question data structure if its \textit {NodeType} attribute designates it as being a question node}{figure.5.2}{}}
\@writefile{lof}{\contentsline {figure}{\numberline {5.3}{\ignorespaces The Grading System in Stembord: StudentSessions, StudentSessionNodes and StudentSessionGrades}}{111}{figure.5.3}}
\newlabel{impl_stem_gradingSystem}{{5.3}{111}{The Grading System in Stembord: StudentSessions, StudentSessionNodes and StudentSessionGrades}{figure.5.3}{}}
\@writefile{toc}{\contentsline {subsubsection}{The Node Grading Subsystem}{111}{section*.144}}
\@writefile{lof}{\contentsline {figure}{\numberline {5.4}{\ignorespaces The Stembord application view. This is the student's view inside a student session. He is getting ready to submit his answer to a multiple-choice question node by clicking the \textit  {Check} button.}}{112}{figure.5.4}}
\newlabel{impl_frontendSessionView}{{5.4}{112}{The Stembord application view. This is the student's view inside a student session. He is getting ready to submit his answer to a multiple-choice question node by clicking the \textit {Check} button}{figure.5.4}{}}
\newlabel{impl_student_sessionController_answer}{{5.1}{112}{The \textit {answer()} method inside the student session controller}{lstlisting.5.1}{}}
\@writefile{lol}{\contentsline {lstlisting}{\numberline {5.1}The \textit  {answer()} method inside the student session controller.}{112}{lstlisting.5.1}}
\newlabel{impl_nodeGraderService}{{5.2}{113}{The function which grades each question node and updates the database entries}{lstlisting.5.2}{}}
\@writefile{lol}{\contentsline {lstlisting}{\numberline {5.2}The function which grades each question node and updates the database entries.}{113}{lstlisting.5.2}}
\newlabel{impl_nodeGraderService_TrueFalseExample}{{5.3}{113}{The \textit {score\_question()} function matches on \textit {NodeQuestion} objects which have a \textit {question\_type} attribute of :true\_false. It then passes the parameters down into the \textit {is\_true\_false\_correct()} function, which checks to see if the student's answer is the same as the answer the teacher has set in the question\_content ``answer''\ field. If this is true a perfect $1.0$ is returned. Otherwise a failing $0.0$ is returned}{lstlisting.5.3}{}}
\@writefile{lol}{\contentsline {lstlisting}{\numberline {5.3}The \textit  {score\_question()} function matches on \textit  {NodeQuestion} objects which have a \textit  {question\_type} attribute of :true\_false. It then passes the parameters down into the \textit  {is\_true\_false\_correct()} function, which checks to see if the student's answer is the same as the answer the teacher has set in the question\_content ``answer''\ field. If this is true a perfect $1.0$ is returned. Otherwise a failing $0.0$ is returned.}{113}{lstlisting.5.3}}
\@setckpt{chapters/module_implementation/01_stembord_components}{
\setcounter{page}{115}
\setcounter{equation}{0}
\setcounter{enumi}{2}
\setcounter{enumii}{0}
\setcounter{enumiii}{0}
\setcounter{enumiv}{0}
\setcounter{footnote}{1}
\setcounter{mpfootnote}{0}
\setcounter{part}{0}
\setcounter{section}{1}
\setcounter{subsection}{0}
\setcounter{subsubsection}{0}
\setcounter{paragraph}{0}
\setcounter{subparagraph}{0}
\setcounter{figure}{4}
\setcounter{table}{0}
\setcounter{chapter}{5}
\setcounter{theorem}{0}
\setcounter{prob}{0}
\setcounter{merk}{0}
\setcounter{Item}{79}
\setcounter{Hfootnote}{8}
\setcounter{bookmark@seq@number}{60}
\setcounter{lstnumber}{22}
\setcounter{parentequation}{0}
\setcounter{AlgoLine}{0}
\setcounter{algocfline}{0}
\setcounter{algocfproc}{0}
\setcounter{algocf}{0}
\setcounter{float@type}{8}
\setcounter{section@level}{3}
\setcounter{lstlisting}{3}
}
