\relax 
\providecommand\hyper@newdestlabel[2]{}
\citation{django_framework}
\@writefile{toc}{\contentsline {section}{\numberline {5.2}Quiz API}{115}{section.5.2}}
\@writefile{toc}{\contentsline {subsection}{\numberline {5.2.1}Rest API Architecture}{115}{subsection.5.2.1}}
\@writefile{lof}{\contentsline {figure}{\numberline {5.5}{\ignorespaces Demonstrates architectural flow of information. The Stembord Backend Client makes an HTTP request to the Quiz API Server in order to grade a \textit  {short-answer}. The server dispatches the request to the \textit  {ShortAnswerHandler} class which checks and validates the input parameters before sending the information further down the pipeline to the ASAG Module itself. The ASAG Module computes the score given the input and sends the results back to the handler. The handler then sends this information back to the Quiz API and Django handles sending the response JSON object to the calling service, in this example the Stembord Backend Client.}}{115}{figure.5.5}}
\newlabel{impl_shortAnswerFlow}{{5.5}{115}{Demonstrates architectural flow of information. The Stembord Backend Client makes an HTTP request to the Quiz API Server in order to grade a \textit {short-answer}. The server dispatches the request to the \textit {ShortAnswerHandler} class which checks and validates the input parameters before sending the information further down the pipeline to the ASAG Module itself. The ASAG Module computes the score given the input and sends the results back to the handler. The handler then sends this information back to the Quiz API and Django handles sending the response JSON object to the calling service, in this example the Stembord Backend Client}{figure.5.5}{}}
\newlabel{impl_endpoint_responseObject}{{5.4}{116}{Quiz API JSON Response. Every endpoint returns three values: a score, split up into raw and scaled scores, a potentially non-empty array containing feedback information such as that the student response contains a spelling mistake, and a log field which holds debugging information}{lstlisting.5.4}{}}
\@writefile{lol}{\contentsline {lstlisting}{\numberline {5.4}Quiz API JSON Response. Every endpoint returns three values: a score, split up into raw and scaled scores, a potentially non-empty array containing feedback information such as that the student response contains a spelling mistake, and a log field which holds debugging information.}{116}{lstlisting.5.4}}
\newlabel{impl_handlerParameters}{{5.5}{116}{Parameter schema for \textit {ShortAnswerHandler} class. A model answer, student answer, points\_available, and method are required parameters. The \textit {points\_available} parameter holds the points which a student can achieve if he answers 100\% correctly. Its an integer value, for instance, $10$. The \textit {method} allows the caller to choose an ASAG approach, for instance, \textit {Cosine\_Coefficient} could be chosen instead of machine learning. Some of these approaches have various options such as whether to use stemming or lemmatization as a preprocessing step. These are given by the \textit {method\_options} parameter. Finally, the language can be set although it defaults to English and the API currently only offers English}{lstlisting.5.5}{}}
\@writefile{lol}{\contentsline {lstlisting}{\numberline {5.5}Parameter schema for \textit  {ShortAnswerHandler} class. A model answer, student answer, points\_available, and method are required parameters. The \textit  {points\_available} parameter holds the points which a student can achieve if he answers 100\% correctly. Its an integer value, for instance, $10$. The \textit  {method} allows the caller to choose an ASAG approach, for instance, \textit  {Cosine\_Coefficient} could be chosen instead of machine learning. Some of these approaches have various options such as whether to use stemming or lemmatization as a preprocessing step. These are given by the \textit  {method\_options} parameter. Finally, the language can be set although it defaults to English and the API currently only offers English.}{116}{lstlisting.5.5}}
\newlabel{impl_handlerImplementation}{{5.6}{117}{Implementation of the \textit {ShortAnswerHandler} class. First, the language is set, then an ASAG scoring class is created for the given method, for instance, \textit {Cosine\_Coefficient} or \textit {Machine\_Learning}. This scorer then scores the \textit {(model-answer, student-response)} pair returning a raw score. The raw score is then scaled and normalized and a response is constructed as seen in Lst. \ref {impl_endpoint_responseObject}. If the debug parameter has been set, a log of the details of the preprocessing and scoring processes which occur inside the \textit {scorer.score()} call are returned}{lstlisting.5.6}{}}
\@writefile{lol}{\contentsline {lstlisting}{\numberline {5.6}Implementation of the \textit  {ShortAnswerHandler} class. First, the language is set, then an ASAG scoring class is created for the given method, for instance, \textit  {Cosine\_Coefficient} or \textit  {Machine\_Learning}. This scorer then scores the \textit  {(model-answer, student-response)} pair returning a raw score. The raw score is then scaled and normalized and a response is constructed as seen in Lst. \ref  {impl_endpoint_responseObject}. If the debug parameter has been set, a log of the details of the preprocessing and scoring processes which occur inside the \textit  {scorer.score()} call are returned.}{117}{lstlisting.5.6}}
\@writefile{toc}{\contentsline {subsection}{\numberline {5.2.2}ASAG Scorer Module}{117}{subsection.5.2.2}}
\newlabel{impl_scorerClassInstantiation}{{5.7}{117}{The \textit {create\_scorer()} function. It instantiates an ASAG object which handles scoring short-answer responses in a particular way. In this code example, the two options are the ``cosine\_coefficient'' approach examined in Exp. \ref {Subsection_Word_Overlap_Measures} and the hybrid machine learning model approach from Exp. \ref {Exp_ml_Classification_Scoring}. These are implemented by the \textit {CosineCoefficientModel} and \textit {MachineLearningModel} classes respectively}{lstlisting.5.7}{}}
\@writefile{lol}{\contentsline {lstlisting}{\numberline {5.7}The \textit  {create\_scorer()} function. It instantiates an ASAG object which handles scoring short-answer responses in a particular way. In this code example, the two options are the ``cosine\_coefficient'' approach examined in Exp. \ref  {Subsection_Word_Overlap_Measures} and the hybrid machine learning model approach from Exp. \ref  {Exp_ml_Classification_Scoring}. These are implemented by the \textit  {CosineCoefficientModel} and \textit  {MachineLearningModel} classes respectively.}{117}{lstlisting.5.7}}
\newlabel{impl_cosineCoefficientModel}{{5.8}{118}{The ASAG score function as implemented for the \textit {cosine\_coefficient} automatic scoring method. The \textit {(model-answer, student-response)} pair is preprocessed, debug information is logged if the debug parameter has been set, the cosine coefficient score is calculated and finally the raw score is returned with $1e-300$ added in the denominator to prevent division by zero exceptions}{lstlisting.5.8}{}}
\@writefile{lol}{\contentsline {lstlisting}{\numberline {5.8}The ASAG score function as implemented for the \textit  {cosine\_coefficient} automatic scoring method. The \textit  {(model-answer, student-response)} pair is preprocessed, debug information is logged if the debug parameter has been set, the cosine coefficient score is calculated and finally the raw score is returned with $1e-300$ added in the denominator to prevent division by zero exceptions.}{118}{lstlisting.5.8}}
\@setckpt{chapters/module_implementation/02_quiz_api}{
\setcounter{page}{120}
\setcounter{equation}{0}
\setcounter{enumi}{2}
\setcounter{enumii}{0}
\setcounter{enumiii}{0}
\setcounter{enumiv}{0}
\setcounter{footnote}{2}
\setcounter{mpfootnote}{0}
\setcounter{part}{0}
\setcounter{section}{2}
\setcounter{subsection}{2}
\setcounter{subsubsection}{0}
\setcounter{paragraph}{0}
\setcounter{subparagraph}{0}
\setcounter{figure}{5}
\setcounter{table}{0}
\setcounter{chapter}{5}
\setcounter{theorem}{0}
\setcounter{prob}{0}
\setcounter{merk}{0}
\setcounter{Item}{81}
\setcounter{Hfootnote}{9}
\setcounter{bookmark@seq@number}{63}
\setcounter{lstnumber}{32}
\setcounter{parentequation}{0}
\setcounter{AlgoLine}{0}
\setcounter{algocfline}{0}
\setcounter{algocfproc}{0}
\setcounter{algocf}{0}
\setcounter{float@type}{8}
\setcounter{section@level}{2}
\setcounter{lstlisting}{8}
}
