\relax 
\providecommand\hyper@newdestlabel[2]{}
\citation{cheng_fox_2017}
\citation{burrows_gurevych_stein_2014}
\citation{burrows_gurevych_stein_2014}
\citation{mohler_bunescu_mihalcea_2011}
\citation{burrows_gurevych_stein_2014}
\@writefile{toc}{\contentsline {section}{\numberline {1.1}Automatic Short Answer Grading (ASAG)}{2}{section.1.1}}
\@writefile{toc}{\contentsline {subsection}{\numberline {1.1.1}Structure and Features}{2}{subsection.1.1.1}}
\citation{burrows_gurevych_stein_2014}
\citation{roy_narahari_deshmukh_2015}
\citation{hearst_2000}
\citation{roy_narahari_deshmukh_2015}
\citation{pearsall_2018}
\citation{roy_narahari_deshmukh_2015}
\citation{hearst_2000}
\citation{jordan_mitchell_2009}
\@writefile{lof}{\contentsline {figure}{\numberline {1.1}{\ignorespaces Example short-answer question item}}{3}{figure.1.1}}
\newlabel{asag_exampleShortAnswer}{{1.1}{3}{Example short-answer question item}{figure.1.1}{}}
\@writefile{toc}{\contentsline {subsection}{\numberline {1.1.2}Importance and Associated Risks}{3}{subsection.1.1.2}}
\@writefile{toc}{\contentsline {subsubsection}{Arguments for ASAG}{3}{section*.5}}
\citation{gomaa_fahmy_2012}
\citation{hearst_2000}
\citation{burrows_gurevych_stein_2014}
\citation{jobbitt_donaldsen_heit_2015}
\citation{burrows_gurevych_stein_2014}
\citation{roy_narahari_deshmukh_2015}
\citation{hyndman_2018}
\citation{hyndman_2018}
\@writefile{toc}{\contentsline {subsubsection}{Arguments against ASAG}{4}{section*.6}}
\citation{kohn_1999}
\citation{kohn_1999}
\citation{kohn_1999}
\citation{kohn_1999}
\@writefile{toc}{\contentsline {subsubsection}{Synthesis}{5}{section*.7}}
\citation{kohn_1999}
\@writefile{toc}{\contentsline {subsection}{\numberline {1.1.3}History and Place in the Learning Technology Landscape}{6}{subsection.1.1.3}}
\citation{page_1966}
\citation{roy_narahari_deshmukh_2015}
\citation{roy_narahari_deshmukh_2015}
\citation{burrows_gurevych_stein_2014}
\citation{burrows_gurevych_stein_2014}
\@writefile{toc}{\contentsline {subsubsection}{Historical Eras of ASAG}{7}{section*.8}}
\@writefile{toc}{\contentsline {paragraph}{The Era of Concept Mapping}{7}{section*.9}}
\citation{burstein_1996}
\citation{burrows_gurevych_stein_2014}
\citation{mitchell_2002}
\@writefile{toc}{\contentsline {paragraph}{The Era of Information Extraction}{8}{section*.10}}
\@writefile{lof}{\contentsline {figure}{\numberline {1.2}{\ignorespaces Automark: an example of a template based information extraction system for ASAG. Shows possible values for the various parts of the template sentence - subject, verb and preposition.}}{8}{figure.1.2}}
\newlabel{intro_asag_automark}{{1.2}{8}{Automark: an example of a template based information extraction system for ASAG. Shows possible values for the various parts of the template sentence - subject, verb and preposition}{figure.1.2}{}}
\citation{burrows_gurevych_stein_2014}
\citation{Mohler_2009}
\citation{burrows_gurevych_stein_2014}
\@writefile{toc}{\contentsline {paragraph}{The Era of Corpus Based Methods}{9}{section*.11}}
\@writefile{toc}{\contentsline {paragraph}{The Era of Machine Learning}{9}{section*.12}}
\citation{burrows_gurevych_stein_2014}
\citation{mohler_bunescu_mihalcea_2011}
\citation{yang_huang_zhuang_zhang_yu_2018}
\citation{Meurers_2011a}
\@writefile{toc}{\contentsline {paragraph}{The Era of Evaluation}{10}{section*.13}}
\@writefile{toc}{\contentsline {paragraph}{Summary of the historical development of ASAG}{10}{section*.14}}
\@writefile{toc}{\contentsline {subsection}{\numberline {1.1.4}Key Problems and Issues}{10}{subsection.1.1.4}}
\citation{pulman_2005}
\citation{kukich_92}
\citation{kukich_92}
\@writefile{toc}{\contentsline {subsubsection}{Text Input Correction and Normalization}{11}{section*.15}}
\citation{roy_narahari_deshmukh_2015}
\citation{pulman_2005}
\citation{pulman_2005}
\@writefile{toc}{\contentsline {subsubsection}{Natural Language Understanding}{12}{section*.16}}
\citation{attali_2006}
\@writefile{toc}{\contentsline {subsubsection}{Feedback Generation}{13}{section*.17}}
\citation{khanacademy_2018}
\citation{datacamp_2018}
\citation{graesser_chipman_haynes_olney_2005}
\citation{burrows_gurevych_stein_2014}
\citation{burrows_gurevych_stein_2014}
\citation{burrows_gurevych_stein_2014}
\@writefile{toc}{\contentsline {subsubsection}{Item Scoring}{14}{section*.18}}
\citation{burrows_gurevych_stein_2014}
\citation{burrows_gurevych_stein_2014}
\citation{burrows_gurevych_stein_2014}
\@writefile{toc}{\contentsline {subsubsection}{Language Independence}{15}{section*.19}}
\@writefile{toc}{\contentsline {subsection}{\numberline {1.1.5}Current State-of-the-Art}{15}{subsection.1.1.5}}
\@setckpt{chapters/intro/01_asag}{
\setcounter{page}{16}
\setcounter{equation}{0}
\setcounter{enumi}{3}
\setcounter{enumii}{0}
\setcounter{enumiii}{0}
\setcounter{enumiv}{0}
\setcounter{footnote}{0}
\setcounter{mpfootnote}{0}
\setcounter{part}{0}
\setcounter{section}{1}
\setcounter{subsection}{5}
\setcounter{subsubsection}{0}
\setcounter{paragraph}{0}
\setcounter{subparagraph}{0}
\setcounter{figure}{2}
\setcounter{table}{0}
\setcounter{chapter}{1}
\setcounter{theorem}{0}
\setcounter{prob}{0}
\setcounter{merk}{0}
\setcounter{Item}{30}
\setcounter{Hfootnote}{0}
\setcounter{bookmark@seq@number}{7}
\setcounter{lstnumber}{1}
\setcounter{parentequation}{0}
\setcounter{AlgoLine}{0}
\setcounter{algocfline}{0}
\setcounter{algocfproc}{0}
\setcounter{algocf}{0}
\setcounter{float@type}{8}
\setcounter{section@level}{2}
\setcounter{lstlisting}{0}
}
