\relax 
\providecommand\hyper@newdestlabel[2]{}
\citation{watson_2007}
\citation{watson_2007}
\citation{watson_2007}
\citation{watson_2007}
\citation{watson_2007}
\citation{coates_2005}
\@writefile{toc}{\contentsline {section}{\numberline {1.2}Learning Management Systems (LMS)}{16}{section.1.2}}
\@writefile{toc}{\contentsline {subsection}{\numberline {1.2.1}Definition and Function of LMS Software}{16}{subsection.1.2.1}}
\citation{watson_2007}
\citation{moodle_asag_2018}
\citation{blackboard_asag_2018}
\citation{watson_2007}
\citation{coates_2005}
\citation{coates_2005}
\@writefile{toc}{\contentsline {subsubsection}{Learning Objects}{17}{section*.20}}
\@writefile{toc}{\contentsline {subsubsection}{ASAG's relationship and role in LMSs}{17}{section*.21}}
\citation{coates_2005}
\citation{coates_2005}
\citation{nkambou_2013}
\citation{bloom_1984}
\citation{nkambou_2013}
\citation{nkambou_2013}
\citation{nkambou_2013}
\@writefile{toc}{\contentsline {subsubsection}{Reasons for LMS usage and adoption uptake}{18}{section*.22}}
\@writefile{toc}{\contentsline {subsection}{\numberline {1.2.2}Definition and Function of Intelligent Tutoring Systems}{18}{subsection.1.2.2}}
\citation{nkambou_2013}
\citation{nkambou_2013}
\@writefile{lof}{\contentsline {figure}{\numberline {1.3}{\ignorespaces The four-component architecture view of ITS.}}{19}{figure.1.3}}
\newlabel{lms_ITS_fourComponents}{{1.3}{19}{The four-component architecture view of ITS}{figure.1.3}{}}
\@writefile{toc}{\contentsline {subsection}{\numberline {1.2.3}Stembord Project}{19}{subsection.1.2.3}}
\@writefile{toc}{\contentsline {subsubsection}{Immediate and Long-Term goals of Stembord}{19}{section*.23}}
\@setckpt{chapters/intro/02_stembord}{
\setcounter{page}{21}
\setcounter{equation}{0}
\setcounter{enumi}{4}
\setcounter{enumii}{0}
\setcounter{enumiii}{0}
\setcounter{enumiv}{0}
\setcounter{footnote}{1}
\setcounter{mpfootnote}{0}
\setcounter{part}{0}
\setcounter{section}{2}
\setcounter{subsection}{3}
\setcounter{subsubsection}{0}
\setcounter{paragraph}{0}
\setcounter{subparagraph}{0}
\setcounter{figure}{3}
\setcounter{table}{0}
\setcounter{chapter}{1}
\setcounter{theorem}{0}
\setcounter{prob}{0}
\setcounter{merk}{0}
\setcounter{Item}{38}
\setcounter{Hfootnote}{1}
\setcounter{bookmark@seq@number}{11}
\setcounter{lstnumber}{1}
\setcounter{parentequation}{0}
\setcounter{AlgoLine}{0}
\setcounter{algocfline}{0}
\setcounter{algocfproc}{0}
\setcounter{algocf}{0}
\setcounter{float@type}{8}
\setcounter{section@level}{3}
\setcounter{lstlisting}{0}
}
