\relax 
\providecommand\hyper@newdestlabel[2]{}
\@writefile{toc}{\contentsline {section}{\numberline {A.2}Algorithms}{133}{section.A.2}}
\@writefile{toc}{\contentsline {subsection}{\numberline {A.2.1}Regular Expression Algorithm}{133}{subsection.A.2.1}}
\@writefile{loa}{\contentsline {algocf}{\numberline {1}{\ignorespaces Regular Expression Matching Algorithm: it iterates through each student responses and attempts to find a full credit match for each of the concepts the teacher has defined. If it fails to find a match and the teacher has defined partial credit regular expressions for the given concept, then the algorithm checks to see if the student response matches a partial credit regular expression and can receive partial credit for that concept. Finally, it averages the score by the total number of patterns i.e. concepts for the question which normalizes responses to a range of 0 (no matches) to 1 (all full credit matches).}}{133}{algocf.1}}
\newlabel{Experiments_Regex_Exp_alg1}{{1}{133}{Regular Expression Algorithm}{algocf.1}{}}
\@setckpt{chapters/appendix/algorithms}{
\setcounter{page}{134}
\setcounter{equation}{0}
\setcounter{enumi}{3}
\setcounter{enumii}{0}
\setcounter{enumiii}{0}
\setcounter{enumiv}{0}
\setcounter{footnote}{0}
\setcounter{mpfootnote}{0}
\setcounter{part}{0}
\setcounter{section}{2}
\setcounter{subsection}{1}
\setcounter{subsubsection}{0}
\setcounter{paragraph}{0}
\setcounter{subparagraph}{0}
\setcounter{figure}{0}
\setcounter{table}{9}
\setcounter{chapter}{1}
\setcounter{theorem}{0}
\setcounter{prob}{0}
\setcounter{merk}{0}
\setcounter{Item}{84}
\setcounter{Hfootnote}{9}
\setcounter{bookmark@seq@number}{71}
\setcounter{lstnumber}{32}
\setcounter{parentequation}{0}
\setcounter{AlgoLine}{21}
\setcounter{algocfline}{1}
\setcounter{algocfproc}{1}
\setcounter{algocf}{1}
\setcounter{float@type}{8}
\setcounter{section@level}{2}
\setcounter{lstlisting}{0}
}
