\relax 
\providecommand\hyper@newdestlabel[2]{}
\@writefile{toc}{\contentsline {section}{\numberline {A.4}Glossary}{136}{section.A.4}}
\@setckpt{chapters/appendix/glossary}{
\setcounter{page}{137}
\setcounter{equation}{0}
\setcounter{enumi}{3}
\setcounter{enumii}{0}
\setcounter{enumiii}{0}
\setcounter{enumiv}{0}
\setcounter{footnote}{0}
\setcounter{mpfootnote}{0}
\setcounter{part}{0}
\setcounter{section}{4}
\setcounter{subsection}{0}
\setcounter{subsubsection}{0}
\setcounter{paragraph}{0}
\setcounter{subparagraph}{0}
\setcounter{figure}{0}
\setcounter{table}{9}
\setcounter{chapter}{1}
\setcounter{theorem}{0}
\setcounter{prob}{0}
\setcounter{merk}{0}
\setcounter{Item}{84}
\setcounter{Hfootnote}{9}
\setcounter{bookmark@seq@number}{74}
\setcounter{lstnumber}{32}
\setcounter{parentequation}{0}
\setcounter{AlgoLine}{21}
\setcounter{algocfline}{1}
\setcounter{algocfproc}{1}
\setcounter{algocf}{1}
\setcounter{float@type}{8}
\setcounter{section@level}{1}
\setcounter{lstlisting}{0}
}
