\relax 
\providecommand\hyper@newdestlabel[2]{}
\@writefile{toc}{\contentsline {section}{\numberline {A.3}Miscellaneous}{134}{section.A.3}}
\@writefile{toc}{\contentsline {subsection}{\numberline {A.3.1}Stembord Project Vision for the Future}{134}{subsection.A.3.1}}
\newlabel{Misc_Stembord_Project_Vision}{{A.3.1}{134}{Stembord Project Vision for the Future}{subsection.A.3.1}{}}
\@setckpt{chapters/appendix/misc}{
\setcounter{page}{136}
\setcounter{equation}{0}
\setcounter{enumi}{3}
\setcounter{enumii}{0}
\setcounter{enumiii}{0}
\setcounter{enumiv}{0}
\setcounter{footnote}{0}
\setcounter{mpfootnote}{0}
\setcounter{part}{0}
\setcounter{section}{3}
\setcounter{subsection}{1}
\setcounter{subsubsection}{0}
\setcounter{paragraph}{0}
\setcounter{subparagraph}{0}
\setcounter{figure}{0}
\setcounter{table}{9}
\setcounter{chapter}{1}
\setcounter{theorem}{0}
\setcounter{prob}{0}
\setcounter{merk}{0}
\setcounter{Item}{84}
\setcounter{Hfootnote}{9}
\setcounter{bookmark@seq@number}{73}
\setcounter{lstnumber}{32}
\setcounter{parentequation}{0}
\setcounter{AlgoLine}{21}
\setcounter{algocfline}{1}
\setcounter{algocfproc}{1}
\setcounter{algocf}{1}
\setcounter{float@type}{8}
\setcounter{section@level}{2}
\setcounter{lstlisting}{0}
}
