\relax 
\providecommand\hyper@newdestlabel[2]{}
\@writefile{toc}{\contentsline {section}{\numberline {A.1}Tables}{129}{section.A.1}}
\@writefile{toc}{\contentsline {subsection}{\numberline {A.1.1}Datasets}{129}{subsection.A.1.1}}
\@writefile{toc}{\contentsline {subsubsection}{Labels}{129}{section*.147}}
\@writefile{lot}{\contentsline {table}{\numberline {A.1}{\ignorespaces Percentages of student responses having a particular label grouped by score category. \textit  {Other Wording} is a factor in many correct student responses, there it indicates that the response simply has different words, terms and phrases than the model answer but is nonetheless correct. Besides \textit  {Missed Concept}, \textit  {Not Enough Info} is the second most common label for partially correct responses, indicating that many responses to not provide enough detail for a human grader to draw an accurate conclusion as to the knowledge state of the student.}}{129}{table.A.1}}
\newlabel{dataset_labels}{{A.1}{129}{Percentages of student responses having a particular label grouped by score category. \textit {Other Wording} is a factor in many correct student responses, there it indicates that the response simply has different words, terms and phrases than the model answer but is nonetheless correct. Besides \textit {Missed Concept}, \textit {Not Enough Info} is the second most common label for partially correct responses, indicating that many responses to not provide enough detail for a human grader to draw an accurate conclusion as to the knowledge state of the student}{table.A.1}{}}
\@writefile{toc}{\contentsline {subsection}{\numberline {A.1.2}Experiments}{129}{subsection.A.1.2}}
\@writefile{toc}{\contentsline {subsubsection}{Regular Expressions}{129}{section*.148}}
\@writefile{toc}{\contentsline {paragraph}{Experiment 1: Teacher Created Regular Expressions}{129}{section*.149}}
\@writefile{lot}{\contentsline {table}{\numberline {A.2}{\ignorespaces Accuracy, precision, recall and F1 measurements per respondent.}}{129}{table.A.2}}
\newlabel{Regexp_respondentScoresTable}{{A.2}{129}{Accuracy, precision, recall and F1 measurements per respondent}{table.A.2}{}}
\@writefile{lot}{\contentsline {table}{\numberline {A.3}{\ignorespaces List of accuracy measurement scores across the pass (1) / fail (0) regex experiments.}}{130}{table.A.3}}
\newlabel{Regexp_respondentScoresTable_binary}{{A.3}{130}{List of accuracy measurement scores across the pass (1) / fail (0) regex experiments}{table.A.3}{}}
\@writefile{toc}{\contentsline {subsubsection}{Lexical Structure}{130}{section*.150}}
\@writefile{toc}{\contentsline {paragraph}{Experiment 1: Word Overlap Measures}{130}{section*.151}}
\@writefile{lot}{\contentsline {table}{\numberline {A.4}{\ignorespaces English, German and Spanish accuracy and F1 measurements per word overlap method. Notice how the Spanish and German versions are slightly worse than the English version. This is likely do to several sources of noise. First, the translations from English to Spanish and English to German could have introduced noise. Second, the tools for stemming and preprocessing are, in general, less robust for languages other than English. }}{130}{table.A.4}}
\newlabel{WordOverlap_languageScores_appendix}{{A.4}{130}{English, German and Spanish accuracy and F1 measurements per word overlap method. Notice how the Spanish and German versions are slightly worse than the English version. This is likely do to several sources of noise. First, the translations from English to Spanish and English to German could have introduced noise. Second, the tools for stemming and preprocessing are, in general, less robust for languages other than English}{table.A.4}{}}
\@writefile{toc}{\contentsline {paragraph}{Experiment 2: N-Gram Comparisons}{130}{section*.152}}
\@writefile{lot}{\contentsline {table}{\numberline {A.5}{\ignorespaces Correlation measures for multiple model answers.}}{130}{table.A.5}}
\newlabel{ngrams_correlationScores_table}{{A.5}{130}{Correlation measures for multiple model answers}{table.A.5}{}}
\@writefile{lot}{\contentsline {table}{\numberline {A.6}{\ignorespaces Comparative Scores for best-performing \textit  {n}-gram models across languages. Model Answers used are $3$ and the \textit  {n}-gram size is $3$ as well.}}{131}{table.A.6}}
\newlabel{ngrams_languageScores_table}{{A.6}{131}{Comparative Scores for best-performing \textit {n}-gram models across languages. Model Answers used are $3$ and the \textit {n}-gram size is $3$ as well}{table.A.6}{}}
\@writefile{toc}{\contentsline {subsubsection}{Semantics}{131}{section*.153}}
\@writefile{toc}{\contentsline {paragraph}{Exp. 1: Knowledge and Corpus Based Meaning}{131}{section*.154}}
\@writefile{lot}{\contentsline {table}{\numberline {A.7}{\ignorespaces Accuracy Scores for Shortest Path (SP), Leacock \& Chodorow (LCH) and Wu \& Palmer (WP) conducted in the Spanish version of \textit  {WordNet}.}}{131}{table.A.7}}
\newlabel{sem_kbSpanishLanguageScores}{{A.7}{131}{Accuracy Scores for Shortest Path (SP), Leacock \& Chodorow (LCH) and Wu \& Palmer (WP) conducted in the Spanish version of \textit {WordNet}}{table.A.7}{}}
\@writefile{toc}{\contentsline {paragraph}{Exp. 2: Word Embeddings}{131}{section*.155}}
\@writefile{lot}{\contentsline {table}{\numberline {A.8}{\ignorespaces Accuracy Scores for Pass/Fail binary classification. \textit  {Word2Vec (w2v)} and \textit  {FastText (ft)} models using $n=3$ \textit  {n}-grams and model answers (ma) ranging from $1 to 3 (ma3)$ are compared.}}{131}{table.A.8}}
\newlabel{sem_vsmPassFailScores}{{A.8}{131}{Accuracy Scores for Pass/Fail binary classification. \textit {Word2Vec (w2v)} and \textit {FastText (ft)} models using $n=3$ \textit {n}-grams and model answers (ma) ranging from $1 to 3 (ma3)$ are compared}{table.A.8}{}}
\@writefile{toc}{\contentsline {subsubsection}{Machine Learning}{132}{section*.156}}
\@writefile{toc}{\contentsline {paragraph}{Exp. 1: Hybrid Approach with Machine Learning}{132}{section*.157}}
\@writefile{lot}{\contentsline {table}{\numberline {A.9}{\ignorespaces New upper bounds for 3-Class Grading (\textit  {Wrong}, \textit  {Partially\_Correct}, \textit  {Correct}) after extending the dataset.}}{132}{table.A.9}}
\newlabel{ml_new_upperBounds}{{A.9}{132}{New upper bounds for 3-Class Grading (\textit {Wrong}, \textit {Partially\_Correct}, \textit {Correct}) after extending the dataset}{table.A.9}{}}
\@setckpt{chapters/appendix/tables}{
\setcounter{page}{133}
\setcounter{equation}{0}
\setcounter{enumi}{3}
\setcounter{enumii}{0}
\setcounter{enumiii}{0}
\setcounter{enumiv}{0}
\setcounter{footnote}{0}
\setcounter{mpfootnote}{0}
\setcounter{part}{0}
\setcounter{section}{1}
\setcounter{subsection}{2}
\setcounter{subsubsection}{0}
\setcounter{paragraph}{0}
\setcounter{subparagraph}{0}
\setcounter{figure}{0}
\setcounter{table}{9}
\setcounter{chapter}{1}
\setcounter{theorem}{0}
\setcounter{prob}{0}
\setcounter{merk}{0}
\setcounter{Item}{84}
\setcounter{Hfootnote}{9}
\setcounter{bookmark@seq@number}{69}
\setcounter{lstnumber}{32}
\setcounter{parentequation}{0}
\setcounter{AlgoLine}{0}
\setcounter{algocfline}{0}
\setcounter{algocfproc}{0}
\setcounter{algocf}{0}
\setcounter{float@type}{8}
\setcounter{section@level}{4}
\setcounter{lstlisting}{0}
}
